{
  "$schema": "http://json-schema.org/draft-07/schema",
  "description": "Configuration file of the setOrder script.",
  "type": "object",
  "properties": {
    "mode": {
      "enum": [
        "uploadPortal",
        "common"
      ]
    },
    "ignoreNumbersAbove": {
      "type": "number"
    },
    "regex": {
      "type": "object",
      "properties": {
        "subSequence": {
          "type": "string",
          "description": "Relevant if mode:'uploadPortal'. Defines the regex to match the sequence of each file of a package."
        },
        "removeFromFileNameForLogging": {
          "type": "string",
          "description": "Defines the regex to mask of sub strings from the original file name, that shall not be displayed in log messages."
        },
        "removeFromFileName": {
          "type": "string",
          "description": "Defines the regex to mask of sub strings from the original file name, that shall not be considered when determining the order."
        },
        "productionFiles": {
          "type": "string",
          "description": "If the file name matches the defined regex it is determined as production file."
        },
        "sidecarFiles": {
          "type": "string",
          "description": "If the file name matches the defined regex it is determined as sidecar file."
        },
        "ignorePageCountForFiles": {
          "type": "string",
          "description": "If the file name matches the defined regex no warning will be logged if the actual pages do not match the required ones."
        },
        "spineFiles": {
          "type": "array",
          "description": "Defines the regex to match files of type spine.",
          "items": {
            "type": "string"
          }
        },
        "cover": {
          "type": "array",
          "description": "Defines the regex to match files of type cover.",
          "items": {
            "type": "string"
          },
          "minLength": 1
        },
        "body": {
          "type": "array",
          "description": "Defines the regex to match files of type body.",
          "items": {
            "type": "string"
          },
          "minLength": 1
        },
        "additionalParts": {
          "description": "Defines the regex to match files of type wildcard.",
          "type": "array",
          "items": {
            "type": "string"
          }
        },
        "sequence": {
          "type": "object",
          "properties": {
            "pages": {
              "type": "array",
              "description": "Defines the regex to determine the order of files.",
              "items": {
                "type": "object",
                "properties": {
                  "expression": {
                    "type": "string"
                  },
                  "needsEqualPrefix": {
                    "type": "boolean"
                  },
                  "needsEqualPostfix": {
                    "type": "boolean"
                  },
                  "needsEqualPrefixAndPostfix": {
                    "type": "boolean"
                  }
                },
                "required": [
                  "expression"
                ]
              },
              "minLength": 1
            },
            "pagesByMonth": {
              "type": "array",
              "description": "Defines the regex to determine the order of files.",
              "items": {
                "type": "object",
                "properties": {
                  "expression": {
                    "type": "string"
                  },
                  "sequence": {
                    "type": "number"
                  }
                },
                "required": [
                  "expression",
                  "sequence"
                ]
              }
            },
            "pairs": {
              "type": "array",
              "items": {
                "type": "object",
                "properties": {
                  "front": {
                    "type": "string"
                  },
                  "back": {
                    "type": "string"
                  },
                  "inside": {
                    "type": "string"
                  },
                  "outside": {
                    "type": "string"
                  }
                },
                "required": [
                  "front",
                  "back"
                ]
              }
            }
          },
          "required": [
            "pages",
            "pagesByMonth",
            "pairs"
          ]
        }
      },
      "required": [
        "productionFiles",
        "cover",
        "body",
        "sequence"
      ]
    },
    "upl": {
      "type": "object",
      "properties": {
        "uniqueIdOfSplitFiles": {
          "type": "string"
        },
        "removeFromSplitFiles": {
          "type": "string"
        },
        "subSequence": {
          "type": "string"
        }
      }
    }
  },
  "required": [
    "regex"
  ]
}