// Jest Snapshot v1, https://goo.gl/fbAQLP

exports[`Flat =>  1_file + sidecar 1`] = `
{
  "files": [
    File {
      "extension": ".pdf",
      "filePath": undefined,
      "id": "1",
      "loggingName": "myTest_200x200.pdf",
      "maskedOffMatches": [],
      "name": "mytest_200x200",
      "numPages": 2,
      "oriName": "myTest_200x200.pdf",
      "pages": [
        {
          "height": 297,
          "page": 1,
          "width": 210,
        },
        {
          "height": 297,
          "page": 2,
          "width": 210,
        },
      ],
      "sequence": 2,
      "subSequence": null,
      "subType": "none",
      "type": "body",
      "uniqueId": undefined,
    },
  ],
  "parts": [
    Part {
      "height": 297,
      "pages": 2,
      "type": "body",
      "width": 210,
    },
  ],
  "results": {
    "duplicatePageWithVariants": null,
    "hasSidecarFiles": true,
    "imposeSinglePages": false,
    "lastErrorCode": -123,
    "lastErrorId": "setOrderInfo",
    "lastErrorMessage": "The order of all files was successfully determined.",
    "pageRangeBody": "",
    "pageRangeCover": "",
    "pageRangeSpine": "",
    "severity": 1,
    "spineIsLastPage": false,
    "splitCoverForMergeWithBody": false,
    "splitCoverFromSingleFile": false,
  },
  "sidecarFiles": [
    File {
      "extension": ".xls",
      "filePath": undefined,
      "id": "2",
      "loggingName": "mySidecar.xls",
      "maskedOffMatches": [],
      "name": "mysidecar",
      "numPages": 0,
      "oriName": "mySidecar.xls",
      "pages": [],
      "sequence": undefined,
      "subSequence": null,
      "subType": "none",
      "type": undefined,
      "uniqueId": undefined,
    },
  ],
}
`;

exports[`Flat =>  2_files 1`] = `
{
  "files": [
    File {
      "extension": ".pdf",
      "filePath": undefined,
      "id": "1",
      "loggingName": "TEDESCO_ESTERNO_NN01.pdf",
      "maskedOffMatches": [],
      "name": "tedesco_esterno_nn01",
      "nameWithoutRegexMatch": "tedesco__nn01",
      "numPages": 0,
      "oriName": "TEDESCO_ESTERNO_NN01.pdf",
      "pages": [],
      "sequence": 2,
      "subSequence": null,
      "subType": "front",
      "type": "body",
      "uniqueId": undefined,
    },
    File {
      "extension": ".pdf",
      "filePath": undefined,
      "id": "2",
      "loggingName": "TEDESCO_INTERNO_NN01.pdf",
      "maskedOffMatches": [],
      "name": "tedesco_interno_nn01",
      "nameWithoutRegexMatch": "tedesco__nn01",
      "numPages": 0,
      "oriName": "TEDESCO_INTERNO_NN01.pdf",
      "pages": [],
      "sequence": 3,
      "subSequence": null,
      "subType": "back",
      "type": "body",
      "uniqueId": undefined,
    },
  ],
  "parts": [
    Part {
      "height": 420,
      "pages": 2,
      "type": "body",
      "width": 420,
    },
  ],
  "results": {
    "duplicatePageWithVariants": null,
    "hasSidecarFiles": false,
    "imposeSinglePages": false,
    "lastErrorCode": -123,
    "lastErrorId": "setOrderInfo",
    "lastErrorMessage": "The order of all files was successfully determined.",
    "pageRangeBody": "",
    "pageRangeCover": "",
    "pageRangeSpine": "",
    "severity": 1,
    "spineIsLastPage": false,
    "splitCoverForMergeWithBody": false,
    "splitCoverFromSingleFile": false,
  },
  "sidecarFiles": [],
}
`;

exports[`Flat =>  2_files_extension_capitalLetters 1`] = `
{
  "files": [
    File {
      "extension": ".png",
      "filePath": undefined,
      "id": "1",
      "loggingName": "myTest_front_200x200.PNG",
      "maskedOffMatches": [],
      "name": "mytest_front_200x200",
      "nameWithoutRegexMatch": "mytest__200x200",
      "numPages": 1,
      "oriName": "myTest_front_200x200.PNG",
      "pages": [
        {
          "height": 297,
          "page": 1,
          "width": 210,
        },
      ],
      "sequence": 2,
      "subSequence": null,
      "subType": "front",
      "type": "body",
      "uniqueId": undefined,
    },
    File {
      "extension": ".png",
      "filePath": undefined,
      "id": "2",
      "loggingName": "myTest_back_200x200.PNG",
      "maskedOffMatches": [],
      "name": "mytest_back_200x200",
      "nameWithoutRegexMatch": "mytest__200x200",
      "numPages": 1,
      "oriName": "myTest_back_200x200.PNG",
      "pages": [
        {
          "height": 297,
          "page": 1,
          "width": 210,
        },
      ],
      "sequence": 3,
      "subSequence": null,
      "subType": "back",
      "type": "body",
      "uniqueId": undefined,
    },
  ],
  "parts": [
    Part {
      "height": 297,
      "pages": 2,
      "type": "body",
      "width": 210,
    },
  ],
  "results": {
    "duplicatePageWithVariants": null,
    "hasSidecarFiles": true,
    "imposeSinglePages": false,
    "lastErrorCode": -123,
    "lastErrorId": "setOrderInfo",
    "lastErrorMessage": "The order of all files was successfully determined.",
    "pageRangeBody": "",
    "pageRangeCover": "",
    "pageRangeSpine": "",
    "severity": 1,
    "spineIsLastPage": false,
    "splitCoverForMergeWithBody": false,
    "splitCoverFromSingleFile": false,
  },
  "sidecarFiles": [
    File {
      "extension": ".xls",
      "filePath": undefined,
      "id": "3",
      "loggingName": "mySidecar.xls",
      "maskedOffMatches": [],
      "name": "mysidecar",
      "numPages": 0,
      "oriName": "mySidecar.xls",
      "pages": [],
      "sequence": undefined,
      "subSequence": null,
      "subType": "none",
      "type": undefined,
      "uniqueId": undefined,
    },
  ],
}
`;

exports[`Flat =>  2_files_flat 1`] = `
{
  "files": [
    File {
      "extension": ".jpg",
      "filePath": "C:\\Workflow\\switch_internal\\backing\\Auto Preflight [2024_09]\\automanaged\\folders2setOrder\\_4D8F6_849568 1\\1-bc8_face-1728867258.jpg",
      "id": "1",
      "loggingName": "1-bc8_face-1728867258.jpg",
      "maskedOffMatches": [
        {
          "index": 11,
          "length": 10,
          "match": "1728867258",
        },
      ],
      "name": "1-bc8_face-",
      "numPages": 1,
      "oriName": "1-bc8_face-1728867258.jpg",
      "pages": [
        {
          "height": 601,
          "page": 1,
          "width": 1049,
        },
      ],
      "sequence": 2,
      "subSequence": null,
      "subType": "none",
      "type": "body",
      "uniqueId": undefined,
    },
    File {
      "extension": ".jpg",
      "filePath": "C:\\Workflow\\switch_internal\\backing\\Auto Preflight [2024_09]\\automanaged\\folders2setOrder\\_4D8F6_849568 1\\1-bc8_image-1728867258.jpg",
      "id": "2",
      "loggingName": "1-bc8_image-1728867258.jpg",
      "maskedOffMatches": [
        {
          "index": 12,
          "length": 10,
          "match": "1728867258",
        },
      ],
      "name": "1-bc8_image-",
      "numPages": 1,
      "oriName": "1-bc8_image-1728867258.jpg",
      "pages": [
        {
          "height": 601,
          "page": 1,
          "width": 1049,
        },
      ],
      "sequence": 3,
      "subSequence": null,
      "subType": "none",
      "type": "body",
      "uniqueId": undefined,
    },
  ],
  "parts": [
    Part {
      "height": 2,
      "pages": 2,
      "type": "body",
      "width": 3.5,
    },
  ],
  "results": {
    "duplicatePageWithVariants": null,
    "hasSidecarFiles": false,
    "imposeSinglePages": false,
    "lastErrorCode": -123,
    "lastErrorId": "setOrderInfo",
    "lastErrorMessage": "The order of all files was successfully determined.",
    "pageRangeBody": "",
    "pageRangeCover": "",
    "pageRangeSpine": "",
    "severity": 1,
    "spineIsLastPage": false,
    "splitCoverForMergeWithBody": false,
    "splitCoverFromSingleFile": false,
  },
  "sidecarFiles": [],
}
`;

exports[`Flat =>  2_files_no_sequence 1`] = `
{
  "files": [
    File {
      "extension": ".pdf",
      "filePath": undefined,
      "id": "1",
      "loggingName": "myTest_200x200.pdf",
      "maskedOffMatches": [],
      "name": "mytest_200x200",
      "numPages": 1,
      "oriName": "myTest_200x200.pdf",
      "pages": [
        {
          "height": 297,
          "page": 1,
          "width": 210,
        },
      ],
      "sequence": 2,
      "subSequence": null,
      "subType": "none",
      "type": "body",
      "uniqueId": undefined,
    },
    File {
      "extension": ".pdf",
      "filePath": undefined,
      "id": "2",
      "loggingName": "myTest_200x200.pdf",
      "maskedOffMatches": [],
      "name": "mytest_200x200",
      "numPages": 2,
      "oriName": "myTest_200x200.pdf",
      "pages": [
        {
          "height": 297,
          "page": 1,
          "width": 210,
        },
        {
          "height": 297,
          "page": 2,
          "width": 210,
        },
      ],
      "sequence": 3,
      "subSequence": null,
      "subType": "none",
      "type": "body",
      "uniqueId": undefined,
    },
  ],
  "parts": [
    Part {
      "height": 297,
      "pages": 2,
      "type": "body",
      "width": 210,
    },
  ],
  "results": {
    "duplicatePageWithVariants": null,
    "hasSidecarFiles": true,
    "imposeSinglePages": false,
    "lastErrorCode": -125,
    "lastErrorId": "setOrderError",
    "lastErrorMessage": "The sequence of files couldn't be determined from file names.",
    "pageRangeBody": "",
    "pageRangeCover": "",
    "pageRangeSpine": "",
    "severity": 3,
    "spineIsLastPage": false,
    "splitCoverForMergeWithBody": false,
    "splitCoverFromSingleFile": false,
  },
  "sidecarFiles": [
    File {
      "extension": ".xls",
      "filePath": undefined,
      "id": "3",
      "loggingName": "mySidecar.xls",
      "maskedOffMatches": [],
      "name": "mysidecar",
      "numPages": 0,
      "oriName": "mySidecar.xls",
      "pages": [],
      "sequence": undefined,
      "subSequence": null,
      "subType": "none",
      "type": undefined,
      "uniqueId": undefined,
    },
  ],
}
`;

exports[`Flat =>  2_files_only_one_sequence 1`] = `
{
  "files": [
    File {
      "extension": ".pdf",
      "filePath": undefined,
      "id": "1",
      "loggingName": "myTest_front_200x200.pdf",
      "maskedOffMatches": [],
      "name": "mytest_front_200x200",
      "nameWithoutRegexMatch": "mytest__200x200",
      "numPages": 1,
      "oriName": "myTest_front_200x200.pdf",
      "pages": [
        {
          "height": 297,
          "page": 1,
          "width": 210,
        },
      ],
      "sequence": 2,
      "subSequence": null,
      "subType": "front",
      "type": "body",
      "uniqueId": undefined,
    },
    File {
      "extension": ".pdf",
      "filePath": undefined,
      "id": "2",
      "loggingName": "myTest_200x200.pdf",
      "maskedOffMatches": [],
      "name": "mytest_200x200",
      "numPages": 1,
      "oriName": "myTest_200x200.pdf",
      "pages": [
        {
          "height": 297,
          "page": 1,
          "width": 210,
        },
      ],
      "sequence": 3,
      "subSequence": null,
      "subType": "back",
      "type": "body",
      "uniqueId": undefined,
    },
  ],
  "parts": [
    Part {
      "height": 297,
      "pages": 2,
      "type": "body",
      "width": 210,
    },
  ],
  "results": {
    "duplicatePageWithVariants": null,
    "hasSidecarFiles": true,
    "imposeSinglePages": false,
    "lastErrorCode": -124,
    "lastErrorId": "setOrderWarning",
    "lastErrorMessage": "Assumed that file myTest_200x200.pdf is back.",
    "pageRangeBody": "",
    "pageRangeCover": "",
    "pageRangeSpine": "",
    "severity": 2,
    "spineIsLastPage": false,
    "splitCoverForMergeWithBody": false,
    "splitCoverFromSingleFile": false,
  },
  "sidecarFiles": [
    File {
      "extension": ".xls",
      "filePath": undefined,
      "id": "3",
      "loggingName": "mySidecar.xls",
      "maskedOffMatches": [],
      "name": "mysidecar",
      "numPages": 0,
      "oriName": "mySidecar.xls",
      "pages": [],
      "sequence": undefined,
      "subSequence": null,
      "subType": "none",
      "type": undefined,
      "uniqueId": undefined,
    },
  ],
}
`;

exports[`Flat =>  2_files_sidecar_via_regex 1`] = `
{
  "files": [
    File {
      "extension": ".pdf",
      "filePath": undefined,
      "id": "1",
      "loggingName": "R2-7650510W01_s1.pdf",
      "maskedOffMatches": [],
      "name": "r2-7650510w01_s1",
      "numPages": 1,
      "oriName": "R2-7650510W01_s1.pdf",
      "pages": [
        {
          "height": 297,
          "page": 1,
          "width": 210,
        },
      ],
      "sequence": 2,
      "subSequence": null,
      "subType": "none",
      "type": "body",
      "uniqueId": undefined,
    },
    File {
      "extension": ".pdf",
      "filePath": undefined,
      "id": "2",
      "loggingName": "R2-7650510W01_s2.pdf",
      "maskedOffMatches": [],
      "name": "r2-7650510w01_s2",
      "numPages": 1,
      "oriName": "R2-7650510W01_s2.pdf",
      "pages": [
        {
          "height": 297,
          "page": 1,
          "width": 210,
        },
      ],
      "sequence": 3,
      "subSequence": null,
      "subType": "none",
      "type": "body",
      "uniqueId": undefined,
    },
  ],
  "parts": [
    Part {
      "height": 297,
      "pages": 2,
      "type": "body",
      "width": 210,
    },
  ],
  "results": {
    "duplicatePageWithVariants": null,
    "hasSidecarFiles": true,
    "imposeSinglePages": false,
    "lastErrorCode": -123,
    "lastErrorId": "setOrderInfo",
    "lastErrorMessage": "The order of all files was successfully determined.",
    "pageRangeBody": "",
    "pageRangeCover": "",
    "pageRangeSpine": "",
    "severity": 1,
    "spineIsLastPage": false,
    "splitCoverForMergeWithBody": false,
    "splitCoverFromSingleFile": false,
  },
  "sidecarFiles": [
    File {
      "extension": ".pdf",
      "filePath": undefined,
      "id": "3",
      "loggingName": "jobticket_R2-7650510W01.pdf",
      "maskedOffMatches": [],
      "name": "jobticket_r2-7650510w01",
      "numPages": 1,
      "oriName": "jobticket_R2-7650510W01.pdf",
      "pages": [
        {
          "height": 297,
          "page": 1,
          "width": 210,
        },
      ],
      "sequence": undefined,
      "subSequence": null,
      "subType": "none",
      "type": undefined,
      "uniqueId": undefined,
    },
  ],
}
`;

exports[`Flat =>  2_files_to_be_imposed 1`] = `
{
  "files": [
    File {
      "extension": ".pdf",
      "filePath": undefined,
      "id": "1",
      "loggingName": "myTest_1p.pdf",
      "maskedOffMatches": [],
      "name": "mytest_1p",
      "numPages": 1,
      "oriName": "myTest_1p.pdf",
      "pages": [
        {
          "height": 297,
          "page": 1,
          "width": 210,
        },
      ],
      "sequence": 2,
      "subSequence": null,
      "subType": "none",
      "type": "body",
      "uniqueId": undefined,
    },
    File {
      "extension": ".pdf",
      "filePath": undefined,
      "id": "2",
      "loggingName": "myTest_2p.pdf",
      "maskedOffMatches": [],
      "name": "mytest_2p",
      "numPages": 1,
      "oriName": "myTest_2p.pdf",
      "pages": [
        {
          "height": 297,
          "page": 1,
          "width": 210,
        },
      ],
      "sequence": 3,
      "subSequence": null,
      "subType": "none",
      "type": "body",
      "uniqueId": undefined,
    },
    File {
      "extension": ".pdf",
      "filePath": undefined,
      "id": "3",
      "loggingName": "myTest_3p.pdf",
      "maskedOffMatches": [],
      "name": "mytest_3p",
      "numPages": 1,
      "oriName": "myTest_3p.pdf",
      "pages": [
        {
          "height": 297,
          "page": 1,
          "width": 210,
        },
      ],
      "sequence": 4,
      "subSequence": null,
      "subType": "none",
      "type": "body",
      "uniqueId": undefined,
    },
    File {
      "extension": ".pdf",
      "filePath": undefined,
      "id": "4",
      "loggingName": "myTest_4p.pdf",
      "maskedOffMatches": [],
      "name": "mytest_4p",
      "numPages": 1,
      "oriName": "myTest_4p.pdf",
      "pages": [
        {
          "height": 297,
          "page": 1,
          "width": 210,
        },
      ],
      "sequence": 5,
      "subSequence": null,
      "subType": "none",
      "type": "body",
      "uniqueId": undefined,
    },
  ],
  "parts": [
    Part {
      "height": 297,
      "pages": 2,
      "type": "body",
      "width": 210,
    },
  ],
  "results": {
    "duplicatePageWithVariants": null,
    "hasSidecarFiles": false,
    "imposeSinglePages": false,
    "lastErrorCode": -123,
    "lastErrorId": "setOrderInfo",
    "lastErrorMessage": "The order of all files was successfully determined.",
    "pageRangeBody": "",
    "pageRangeCover": "",
    "pageRangeSpine": "",
    "severity": 1,
    "spineIsLastPage": false,
    "splitCoverForMergeWithBody": false,
    "splitCoverFromSingleFile": false,
  },
  "sidecarFiles": [],
}
`;

exports[`Flat =>  2_files_visitengarten 1`] = `
{
  "files": [
    File {
      "extension": ".jpg",
      "filePath": "C:\\Users\\impressed\\AppData\\Roaming\\Enfocus\\Switch Server\\backing\\pa_ReceiveV9_L (1)\\automanaged\\2LiveF\\_6WJJE_7793689W01_switch2\\Visitengarten_nordbruecken_vorderseite_Fertig.jpg",
      "id": "2",
      "loggingName": "Visitengarten_nordbruecken_vorderseite_Fertig.jpg",
      "maskedOffMatches": [],
      "name": "visitengarten_nordbruecken_vorderseite_fertig",
      "nameWithoutRegexMatch": "visitengarten_nordbruecken__fertig",
      "numPages": 1,
      "oriName": "Visitengarten_nordbruecken_vorderseite_Fertig.jpg",
      "pages": [
        {
          "height": 1559,
          "page": 1,
          "width": 2409,
        },
      ],
      "sequence": 2,
      "subSequence": null,
      "subType": "front",
      "type": "body",
      "uniqueId": undefined,
    },
    File {
      "extension": ".jpg",
      "filePath": "C:\\Users\\impressed\\AppData\\Roaming\\Enfocus\\Switch Server\\backing\\pa_ReceiveV9_L (1)\\automanaged\\2LiveF\\_6WJJE_7793689W01_switch2\\Visitengarten_nordbruecken_rueckseite_Fertig.jpg",
      "id": "1",
      "loggingName": "Visitengarten_nordbruecken_rueckseite_Fertig.jpg",
      "maskedOffMatches": [],
      "name": "visitengarten_nordbruecken_rueckseite_fertig",
      "nameWithoutRegexMatch": "visitengarten_nordbruecken__fertig",
      "numPages": 1,
      "oriName": "Visitengarten_nordbruecken_rueckseite_Fertig.jpg",
      "pages": [
        {
          "height": 1559,
          "page": 1,
          "width": 2409,
        },
      ],
      "sequence": 3,
      "subSequence": null,
      "subType": "back",
      "type": "body",
      "uniqueId": undefined,
    },
  ],
  "parts": [
    Part {
      "height": 55,
      "pages": 2,
      "type": "body",
      "width": 85,
    },
  ],
  "results": {
    "duplicatePageWithVariants": null,
    "hasSidecarFiles": false,
    "imposeSinglePages": false,
    "lastErrorCode": -123,
    "lastErrorId": "setOrderInfo",
    "lastErrorMessage": "The order of all files was successfully determined.",
    "pageRangeBody": "",
    "pageRangeCover": "",
    "pageRangeSpine": "",
    "severity": 1,
    "spineIsLastPage": false,
    "splitCoverForMergeWithBody": false,
    "splitCoverFromSingleFile": false,
  },
  "sidecarFiles": [],
}
`;

exports[`Flat =>  3_files - should have error message 1`] = `
[
  Message {
    "message": "Version: 2.4.7",
    "severity": 1,
    "severityString": "info",
  },
  Message {
    "message": "Input folder name: myInputFolder",
    "severity": 1,
    "severityString": "info",
  },
  Message {
    "message": "Input file names:
  myTest_front_200x200.pdf
  myTest_back_200x200.pdf
  myTest_back_200x200.pdf
  mySidecar.xls",
    "severity": 1,
    "severityString": "info",
  },
  Message {
    "message": "Expected product part: {"type":"body","pages":2,"width":210,"height":297}.",
    "severity": 1,
    "severityString": "info",
  },
  Message {
    "message": "productType: FlatWork.",
    "severity": 1,
    "severityString": "info",
  },
  Message {
    "message": "parameter.ignoreSequenceForFlat: false.",
    "severity": 1,
    "severityString": "info",
  },
  Message {
    "message": "Job is recognized as flat product.",
    "severity": 1,
    "severityString": "info",
  },
  Message {
    "message": "Expected amount of variants is 1.",
    "severity": 1,
    "severityString": "info",
  },
  Message {
    "message": "Received too many files. Received 3 files, but expected:
              - number of files === number of variants (1)
              - number of files === number of variants + 1 (2)
              - number of files === 2 x number of variants (2)",
    "severity": 3,
    "severityString": "error",
  },
  Message {
    "message": "Updating sequence of files for further processing.",
    "severity": 1,
    "severityString": "info",
  },
  Message {
    "message": "The following files were determined as sidecar files:
  fileName: mySidecar.xls",
    "severity": 1,
    "severityString": "info",
  },
]
`;

exports[`Flat =>  4_files_2_variants_brochure 1`] = `
{
  "files": [
    File {
      "extension": ".pdf",
      "filePath": undefined,
      "id": "1",
      "loggingName": "myTest_front.pdf",
      "maskedOffMatches": [],
      "name": "mytest_front",
      "nameWithoutRegexMatch": "mytest_",
      "numPages": 0,
      "oriName": "myTest_front.pdf",
      "pages": [],
      "sequence": 2,
      "subSequence": null,
      "subType": "front",
      "type": "body",
      "uniqueId": undefined,
    },
    File {
      "extension": ".pdf",
      "filePath": undefined,
      "id": "4",
      "loggingName": "myTest_back.pdf",
      "maskedOffMatches": [],
      "name": "mytest_back",
      "nameWithoutRegexMatch": "mytest_",
      "numPages": 0,
      "oriName": "myTest_back.pdf",
      "pages": [],
      "sequence": 3,
      "subSequence": null,
      "subType": "back",
      "type": "body",
      "uniqueId": undefined,
    },
    File {
      "extension": ".pdf",
      "filePath": undefined,
      "id": "2",
      "loggingName": "myTest1_front.pdf",
      "maskedOffMatches": [],
      "name": "mytest1_front",
      "nameWithoutRegexMatch": "mytest1_",
      "numPages": 0,
      "oriName": "myTest1_front.pdf",
      "pages": [],
      "sequence": 4,
      "subSequence": null,
      "subType": "front",
      "type": "body",
      "uniqueId": undefined,
    },
    File {
      "extension": ".pdf",
      "filePath": undefined,
      "id": "3",
      "loggingName": "myTest1_back.pdf",
      "maskedOffMatches": [],
      "name": "mytest1_back",
      "nameWithoutRegexMatch": "mytest1_",
      "numPages": 0,
      "oriName": "myTest1_back.pdf",
      "pages": [],
      "sequence": 5,
      "subSequence": null,
      "subType": "back",
      "type": "body",
      "uniqueId": undefined,
    },
  ],
  "parts": [
    Part {
      "height": 297,
      "pages": 4,
      "type": "body",
      "width": 210,
    },
  ],
  "results": {
    "duplicatePageWithVariants": null,
    "hasSidecarFiles": false,
    "imposeSinglePages": false,
    "lastErrorCode": -123,
    "lastErrorId": "setOrderInfo",
    "lastErrorMessage": "The order of all files was successfully determined.",
    "pageRangeBody": "",
    "pageRangeCover": "",
    "pageRangeSpine": "",
    "severity": 1,
    "spineIsLastPage": false,
    "splitCoverForMergeWithBody": false,
    "splitCoverFromSingleFile": false,
  },
  "sidecarFiles": [],
}
`;

exports[`Flat =>  4_files_4_variants_brochure 1`] = `
{
  "files": [
    File {
      "extension": ".pdf",
      "filePath": undefined,
      "id": "1",
      "loggingName": "myTest_front.pdf",
      "maskedOffMatches": [],
      "name": "mytest_front",
      "numPages": 0,
      "oriName": "myTest_front.pdf",
      "pages": [],
      "sequence": 2,
      "subSequence": null,
      "subType": "none",
      "type": "body",
      "uniqueId": undefined,
    },
    File {
      "extension": ".pdf",
      "filePath": undefined,
      "id": "2",
      "loggingName": "myTest1_front.pdf",
      "maskedOffMatches": [],
      "name": "mytest1_front",
      "numPages": 0,
      "oriName": "myTest1_front.pdf",
      "pages": [],
      "sequence": 3,
      "subSequence": null,
      "subType": "none",
      "type": "body",
      "uniqueId": undefined,
    },
    File {
      "extension": ".pdf",
      "filePath": undefined,
      "id": "3",
      "loggingName": "myTest1_back.pdf",
      "maskedOffMatches": [],
      "name": "mytest1_back",
      "numPages": 0,
      "oriName": "myTest1_back.pdf",
      "pages": [],
      "sequence": 4,
      "subSequence": null,
      "subType": "none",
      "type": "body",
      "uniqueId": undefined,
    },
    File {
      "extension": ".pdf",
      "filePath": undefined,
      "id": "4",
      "loggingName": "myTest_back.pdf",
      "maskedOffMatches": [],
      "name": "mytest_back",
      "numPages": 0,
      "oriName": "myTest_back.pdf",
      "pages": [],
      "sequence": 5,
      "subSequence": null,
      "subType": "none",
      "type": "body",
      "uniqueId": undefined,
    },
  ],
  "parts": [
    Part {
      "height": 297,
      "pages": 4,
      "type": "body",
      "width": 210,
    },
  ],
  "results": {
    "duplicatePageWithVariants": null,
    "hasSidecarFiles": false,
    "imposeSinglePages": false,
    "lastErrorCode": -123,
    "lastErrorId": "setOrderInfo",
    "lastErrorMessage": "The order of all files was successfully determined.",
    "pageRangeBody": "",
    "pageRangeCover": "",
    "pageRangeSpine": "",
    "severity": 1,
    "spineIsLastPage": false,
    "splitCoverForMergeWithBody": false,
    "splitCoverFromSingleFile": false,
  },
  "sidecarFiles": [],
}
`;

exports[`Flat =>  5_files_4_variants_brochure_back 1`] = `
{
  "files": [
    File {
      "extension": ".pdf",
      "filePath": undefined,
      "id": "1",
      "loggingName": "myTest_back.pdf",
      "maskedOffMatches": [],
      "name": "mytest_back",
      "nameWithoutRegexMatch": "mytest_",
      "numPages": 0,
      "oriName": "myTest_back.pdf",
      "pages": [],
      "sequence": 6,
      "subSequence": null,
      "subType": "back",
      "type": "body",
      "uniqueId": undefined,
    },
    File {
      "extension": ".pdf",
      "filePath": undefined,
      "id": "2",
      "loggingName": "myTest1.pdf",
      "maskedOffMatches": [],
      "name": "mytest1",
      "numPages": 0,
      "oriName": "myTest1.pdf",
      "pages": [],
      "sequence": 2,
      "subSequence": null,
      "subType": "front",
      "type": "body",
      "uniqueId": undefined,
    },
    File {
      "extension": ".pdf",
      "filePath": undefined,
      "id": "3",
      "loggingName": "myTest2.pdf",
      "maskedOffMatches": [],
      "name": "mytest2",
      "numPages": 0,
      "oriName": "myTest2.pdf",
      "pages": [],
      "sequence": 3,
      "subSequence": null,
      "subType": "front",
      "type": "body",
      "uniqueId": undefined,
    },
    File {
      "extension": ".pdf",
      "filePath": undefined,
      "id": "4",
      "loggingName": "myTest3.pdf",
      "maskedOffMatches": [],
      "name": "mytest3",
      "numPages": 0,
      "oriName": "myTest3.pdf",
      "pages": [],
      "sequence": 4,
      "subSequence": null,
      "subType": "front",
      "type": "body",
      "uniqueId": undefined,
    },
    File {
      "extension": ".pdf",
      "filePath": undefined,
      "id": "5",
      "loggingName": "myTest4.pdf",
      "maskedOffMatches": [],
      "name": "mytest4",
      "numPages": 0,
      "oriName": "myTest4.pdf",
      "pages": [],
      "sequence": 5,
      "subSequence": null,
      "subType": "front",
      "type": "body",
      "uniqueId": undefined,
    },
  ],
  "parts": [
    Part {
      "height": 297,
      "pages": 4,
      "type": "body",
      "width": 210,
    },
  ],
  "results": {
    "duplicatePageWithVariants": "isLastPage",
    "hasSidecarFiles": false,
    "imposeSinglePages": false,
    "lastErrorCode": -124,
    "lastErrorId": "setOrderWarning",
    "lastErrorMessage": "Assumed that files: myTest1.pdf, myTest2.pdf, myTest3.pdf, myTest4.pdf are the front pages.",
    "pageRangeBody": "",
    "pageRangeCover": "",
    "pageRangeSpine": "",
    "severity": 2,
    "spineIsLastPage": false,
    "splitCoverForMergeWithBody": false,
    "splitCoverFromSingleFile": false,
  },
  "sidecarFiles": [],
}
`;

exports[`Flat =>  5_files_4_variants_brochure_back_and_front 1`] = `
{
  "files": [
    File {
      "extension": ".pdf",
      "filePath": undefined,
      "id": "1",
      "loggingName": "myTest_back.pdf",
      "maskedOffMatches": [],
      "name": "mytest_back",
      "nameWithoutRegexMatch": "mytest_",
      "numPages": 0,
      "oriName": "myTest_back.pdf",
      "pages": [],
      "sequence": 6,
      "subSequence": null,
      "subType": "back",
      "type": "body",
      "uniqueId": undefined,
    },
    File {
      "extension": ".pdf",
      "filePath": undefined,
      "id": "2",
      "loggingName": "myTest_front1.pdf",
      "maskedOffMatches": [],
      "name": "mytest_front1",
      "nameWithoutRegexMatch": "mytest_1",
      "numPages": 0,
      "oriName": "myTest_front1.pdf",
      "pages": [],
      "sequence": 2,
      "subSequence": null,
      "subType": "front",
      "type": "body",
      "uniqueId": undefined,
    },
    File {
      "extension": ".pdf",
      "filePath": undefined,
      "id": "3",
      "loggingName": "myTest_front2.pdf",
      "maskedOffMatches": [],
      "name": "mytest_front2",
      "nameWithoutRegexMatch": "mytest_2",
      "numPages": 0,
      "oriName": "myTest_front2.pdf",
      "pages": [],
      "sequence": 3,
      "subSequence": null,
      "subType": "front",
      "type": "body",
      "uniqueId": undefined,
    },
    File {
      "extension": ".pdf",
      "filePath": undefined,
      "id": "4",
      "loggingName": "myTest_front3.pdf",
      "maskedOffMatches": [],
      "name": "mytest_front3",
      "nameWithoutRegexMatch": "mytest_3",
      "numPages": 0,
      "oriName": "myTest_front3.pdf",
      "pages": [],
      "sequence": 4,
      "subSequence": null,
      "subType": "front",
      "type": "body",
      "uniqueId": undefined,
    },
    File {
      "extension": ".pdf",
      "filePath": undefined,
      "id": "5",
      "loggingName": "myTest_front4.pdf",
      "maskedOffMatches": [],
      "name": "mytest_front4",
      "nameWithoutRegexMatch": "mytest_4",
      "numPages": 0,
      "oriName": "myTest_front4.pdf",
      "pages": [],
      "sequence": 5,
      "subSequence": null,
      "subType": "front",
      "type": "body",
      "uniqueId": undefined,
    },
  ],
  "parts": [
    Part {
      "height": 297,
      "pages": 4,
      "type": "body",
      "width": 210,
    },
  ],
  "results": {
    "duplicatePageWithVariants": "isLastPage",
    "hasSidecarFiles": false,
    "imposeSinglePages": false,
    "lastErrorCode": -124,
    "lastErrorId": "setOrderWarning",
    "lastErrorMessage": "Received one more file than the number of variants. Assumed that front or back file must be duplicated afterwards.",
    "pageRangeBody": "",
    "pageRangeCover": "",
    "pageRangeSpine": "",
    "severity": 2,
    "spineIsLastPage": false,
    "splitCoverForMergeWithBody": false,
    "splitCoverFromSingleFile": false,
  },
  "sidecarFiles": [],
}
`;

exports[`Flat =>  5_files_4_variants_brochure_front 1`] = `
{
  "files": [
    File {
      "extension": ".pdf",
      "filePath": undefined,
      "id": "1",
      "loggingName": "myTest_front.pdf",
      "maskedOffMatches": [],
      "name": "mytest_front",
      "nameWithoutRegexMatch": "mytest_",
      "numPages": 0,
      "oriName": "myTest_front.pdf",
      "pages": [],
      "sequence": 2,
      "subSequence": null,
      "subType": "front",
      "type": "body",
      "uniqueId": undefined,
    },
    File {
      "extension": ".pdf",
      "filePath": undefined,
      "id": "2",
      "loggingName": "myTest1.pdf",
      "maskedOffMatches": [],
      "name": "mytest1",
      "numPages": 0,
      "oriName": "myTest1.pdf",
      "pages": [],
      "sequence": 3,
      "subSequence": null,
      "subType": "back",
      "type": "body",
      "uniqueId": undefined,
    },
    File {
      "extension": ".pdf",
      "filePath": undefined,
      "id": "3",
      "loggingName": "myTest2.pdf",
      "maskedOffMatches": [],
      "name": "mytest2",
      "numPages": 0,
      "oriName": "myTest2.pdf",
      "pages": [],
      "sequence": 4,
      "subSequence": null,
      "subType": "back",
      "type": "body",
      "uniqueId": undefined,
    },
    File {
      "extension": ".pdf",
      "filePath": undefined,
      "id": "4",
      "loggingName": "myTest3.pdf",
      "maskedOffMatches": [],
      "name": "mytest3",
      "numPages": 0,
      "oriName": "myTest3.pdf",
      "pages": [],
      "sequence": 5,
      "subSequence": null,
      "subType": "back",
      "type": "body",
      "uniqueId": undefined,
    },
    File {
      "extension": ".pdf",
      "filePath": undefined,
      "id": "5",
      "loggingName": "myTest4.pdf",
      "maskedOffMatches": [],
      "name": "mytest4",
      "numPages": 0,
      "oriName": "myTest4.pdf",
      "pages": [],
      "sequence": 6,
      "subSequence": null,
      "subType": "back",
      "type": "body",
      "uniqueId": undefined,
    },
  ],
  "parts": [
    Part {
      "height": 297,
      "pages": 4,
      "type": "body",
      "width": 210,
    },
  ],
  "results": {
    "duplicatePageWithVariants": "isFirstPage",
    "hasSidecarFiles": false,
    "imposeSinglePages": false,
    "lastErrorCode": -124,
    "lastErrorId": "setOrderWarning",
    "lastErrorMessage": "Assumed that files: myTest1.pdf, myTest2.pdf, myTest3.pdf, myTest4.pdf are the back pages.",
    "pageRangeBody": "",
    "pageRangeCover": "",
    "pageRangeSpine": "",
    "severity": 2,
    "spineIsLastPage": false,
    "splitCoverForMergeWithBody": false,
    "splitCoverFromSingleFile": false,
  },
  "sidecarFiles": [],
}
`;

exports[`Flat =>  5_files_4_variants_brochure_none 1`] = `
{
  "files": [
    File {
      "extension": ".pdf",
      "filePath": undefined,
      "id": "1",
      "loggingName": "myTest.pdf",
      "maskedOffMatches": [],
      "name": "mytest",
      "numPages": 0,
      "oriName": "myTest.pdf",
      "pages": [],
      "sequence": undefined,
      "subSequence": null,
      "subType": "none",
      "type": "body",
      "uniqueId": undefined,
    },
    File {
      "extension": ".pdf",
      "filePath": undefined,
      "id": "2",
      "loggingName": "myTest1.pdf",
      "maskedOffMatches": [],
      "name": "mytest1",
      "numPages": 0,
      "oriName": "myTest1.pdf",
      "pages": [],
      "sequence": undefined,
      "subSequence": null,
      "subType": "none",
      "type": "body",
      "uniqueId": undefined,
    },
    File {
      "extension": ".pdf",
      "filePath": undefined,
      "id": "3",
      "loggingName": "myTest2.pdf",
      "maskedOffMatches": [],
      "name": "mytest2",
      "numPages": 0,
      "oriName": "myTest2.pdf",
      "pages": [],
      "sequence": undefined,
      "subSequence": null,
      "subType": "none",
      "type": "body",
      "uniqueId": undefined,
    },
    File {
      "extension": ".pdf",
      "filePath": undefined,
      "id": "4",
      "loggingName": "myTest3.pdf",
      "maskedOffMatches": [],
      "name": "mytest3",
      "numPages": 0,
      "oriName": "myTest3.pdf",
      "pages": [],
      "sequence": undefined,
      "subSequence": null,
      "subType": "none",
      "type": "body",
      "uniqueId": undefined,
    },
    File {
      "extension": ".pdf",
      "filePath": undefined,
      "id": "5",
      "loggingName": "myTest4.pdf",
      "maskedOffMatches": [],
      "name": "mytest4",
      "numPages": 0,
      "oriName": "myTest4.pdf",
      "pages": [],
      "sequence": undefined,
      "subSequence": null,
      "subType": "none",
      "type": "body",
      "uniqueId": undefined,
    },
  ],
  "parts": [
    Part {
      "height": 297,
      "pages": 4,
      "type": "body",
      "width": 210,
    },
  ],
  "results": {
    "duplicatePageWithVariants": null,
    "hasSidecarFiles": false,
    "imposeSinglePages": false,
    "lastErrorCode": -125,
    "lastErrorId": "setOrderError",
    "lastErrorMessage": "Failed to identify only one file that matches front or that matches back.",
    "pageRangeBody": "",
    "pageRangeCover": "",
    "pageRangeSpine": "",
    "severity": 3,
    "spineIsLastPage": false,
    "splitCoverForMergeWithBody": false,
    "splitCoverFromSingleFile": false,
  },
  "sidecarFiles": [],
}
`;
