{
  "notebook": {
    "files": [
      {
        "name": "Druckdaten_Notizblock_Einband_152_x_237_.pdf"
      },
      {
        "name": "Druckdaten_Notizblock_Innen_152_x_214_mm.pdf"
      }
    ],
    "parameter": {
      "ignoreSequenceForFlat": false,
      "productType": "Notebook",
      "parts": [
        {
          "type": "body",
          "pages": 1,
          "width": 148,
          "height": 210
        },
        {
          "type": "cover",
          "pages": 25,
          "width": 148,
          "height": 210
        }
      ]
    }
  },
  "2_files_cover_body": {
    "files": [
      {
        "name": "1-AEROCOMPACT_Brochure_COVER+SPINE_P_0415472094.pdf",
        "numPages": 40
      },
      {
        "name": "1-AEROCOMPACT_Brochure_INSIDE_Without-Systems_P_0415472147.pdf",
        "numPages": 2
      }
    ],
    "parameter": {
      "ignoreSequenceForFlat": false,
      "productType": "Book",
      "parts": [
        {
          "type": "body",
          "pages": 44,
          "width": 210,
          "height": 297
        },
        {
          "type": "cover",
          "pages": 2,
          "width": 420,
          "height": 297
        }
      ]
    }
  },
  "3_files": {
    "files": [
      {
        "name": "1-Page_02_Extra_2023_1412553121.pdf",
        "numPages": 1,
        "pages": [
          {
            "page": 1,
            "width": 210,
            "height": 297
          }
        ]
      },
      {
        "name": "1-Page_03_Extra_2023_1412553132.pdf",
        "numPages": 1,
        "pages": [
          {
            "page": 1,
            "width": 210,
            "height": 297
          }
        ]
      },
      {
        "name": "1-Page_04_Jan_Pic_2023_1412553145.pdf",
        "numPages": 1,
        "pages": [
          {
            "page": 1,
            "width": 210,
            "height": 297
          }
        ]
      }
    ],
    "parameter": {
      "ignoreSequenceForFlat": false,
      "productType": "Booklet",
      "parts": [
        {
          "type": "body",
          "pages": 3,
          "width": 210,
          "height": 297
        }
      ]
    }
  },
  "3_files_no_sequence": {
    "files": [
      {
        "name": "1-Page_02_Extra_2023_1412553121.pdf",
        "numPages": 1,
        "pages": [
          {
            "page": 1,
            "width": 210,
            "height": 297
          }
        ]
      },
      {
        "name": "1-Page_02_Extra_2023_1412553132.pdf",
        "numPages": 1,
        "pages": [
          {
            "page": 1,
            "width": 210,
            "height": 297
          }
        ]
      },
      {
        "name": "1-Page_02_Jan_Pic_2023_1412553145.pdf",
        "numPages": 1,
        "pages": [
          {
            "page": 1,
            "width": 210,
            "height": 297
          }
        ]
      }
    ],
    "parameter": {
      "ignoreSequenceForFlat": false,
      "productType": "Booklet",
      "parts": [
        {
          "type": "body",
          "pages": 3,
          "width": 210,
          "height": 297
        }
      ]
    }
  },
  "3_files_num_between": {
    "files": [
      {
        "name": "1-3001_02_Extra_2023_1412553121.pdf",
        "numPages": 1,
        "pages": [
          {
            "page": 1,
            "width": 210,
            "height": 297
          }
        ]
      },
      {
        "name": "1-3001_03_Extra_2023_1412553132.pdf",
        "numPages": 1,
        "pages": [
          {
            "page": 1,
            "width": 210,
            "height": 297
          }
        ]
      },
      {
        "name": "1-3001_04_Jan_Pic_2023_1412553145.pdf",
        "numPages": 1,
        "pages": [
          {
            "page": 1,
            "width": 210,
            "height": 297
          }
        ]
      }
    ],
    "parameter": {
      "ignoreSequenceForFlat": false,
      "productType": "Booklet",
      "parts": [
        {
          "type": "body",
          "pages": 3,
          "width": 210,
          "height": 297
        }
      ]
    }
  },
  "3_files_numbers": {
    "files": [
      {
        "name": "1.pdf",
        "numPages": 1,
        "pages": [
          {
            "page": 1,
            "width": 210,
            "height": 297
          }
        ]
      },
      {
        "name": "2.pdf",
        "numPages": 1,
        "pages": [
          {
            "page": 1,
            "width": 210,
            "height": 297
          }
        ]
      },
      {
        "name": "3.pdf",
        "numPages": 1,
        "pages": [
          {
            "page": 1,
            "width": 210,
            "height": 297
          }
        ]
      }
    ],
    "parameter": {
      "ignoreSequenceForFlat": false,
      "productType": "Booklet",
      "parts": [
        {
          "type": "body",
          "pages": 3,
          "width": 210,
          "height": 297
        }
      ]
    }
  },
  "3_files_numbers_cover_body": {
    "files": [
      {
        "name": "1.pdf",
        "numPages": 1,
        "pages": [
          {
            "page": 1,
            "width": 210,
            "height": 297
          }
        ]
      },
      {
        "name": "2.pdf",
        "numPages": 1,
        "pages": [
          {
            "page": 1,
            "width": 210,
            "height": 297
          }
        ]
      },
      {
        "name": "3_cover.pdf",
        "numPages": 1,
        "pages": [
          {
            "page": 1,
            "width": 210,
            "height": 297
          }
        ]
      }
    ],
    "parameter": {
      "ignoreSequenceForFlat": false,
      "productType": "Book",
      "parts": [
        {
          "type": "body",
          "pages": 2,
          "width": 210,
          "height": 297
        },
        {
          "type": "cover",
          "pages": 1,
          "width": 210,
          "height": 297
        }
      ]
    }
  },
  "16_files": {
    "files": [
      {
        "name": "1-10_2911261317.png",
        "numPages": 1,
        "pages": [
          {
            "page": 1,
            "height": 297,
            "width": 210
          }
        ]
      },
      {
        "name": "1-11_2911261322.png",
        "numPages": 1,
        "pages": [
          {
            "page": 1,
            "height": 297,
            "width": 210
          }
        ]
      },
      {
        "name": "1-12_2911261329.png",
        "numPages": 1,
        "pages": [
          {
            "page": 1,
            "height": 297,
            "width": 210
          }
        ]
      },
      {
        "name": "1-13_2911261334.png",
        "numPages": 1,
        "pages": [
          {
            "page": 1,
            "height": 297,
            "width": 210
          }
        ]
      },
      {
        "name": "1-14_2911261339.png",
        "numPages": 1,
        "pages": [
          {
            "page": 1,
            "height": 297,
            "width": 210
          }
        ]
      },
      {
        "name": "1-15_2911261344.png",
        "numPages": 1,
        "pages": [
          {
            "page": 1,
            "height": 297,
            "width": 210
          }
        ]
      },
      {
        "name": "1-16_2911261349.png",
        "numPages": 1,
        "pages": [
          {
            "page": 1,
            "height": 297,
            "width": 210
          }
        ]
      },
      {
        "name": "1-1_2911261271.png",
        "numPages": 1,
        "pages": [
          {
            "page": 1,
            "height": 297,
            "width": 210
          }
        ]
      },
      {
        "name": "1-2_2911261276.png",
        "numPages": 1,
        "pages": [
          {
            "page": 1,
            "height": 297,
            "width": 210
          }
        ]
      },
      {
        "name": "1-3_2911261281.png",
        "numPages": 1,
        "pages": [
          {
            "page": 1,
            "height": 297,
            "width": 210
          }
        ]
      },
      {
        "name": "1-4_2911261286.png",
        "numPages": 1,
        "pages": [
          {
            "page": 1,
            "height": 297,
            "width": 210
          }
        ]
      },
      {
        "name": "1-5_2911261291.png",
        "numPages": 1,
        "pages": [
          {
            "page": 1,
            "height": 297,
            "width": 210
          }
        ]
      },
      {
        "name": "1-6_2911261295.png",
        "numPages": 1,
        "pages": [
          {
            "page": 1,
            "height": 297,
            "width": 210
          }
        ]
      },
      {
        "name": "1-7_2911261302.png",
        "numPages": 1,
        "pages": [
          {
            "page": 1,
            "height": 297,
            "width": 210
          }
        ]
      },
      {
        "name": "1-8_2911261308.png",
        "numPages": 1,
        "pages": [
          {
            "page": 1,
            "height": 297,
            "width": 210
          }
        ]
      },
      {
        "name": "1-9_2911261312.png",
        "numPages": 1,
        "pages": [
          {
            "page": 1,
            "height": 297,
            "width": 210
          }
        ]
      }
    ],
    "parameter": {
      "ignoreSequenceForFlat": false,
      "productType": "Booklet",
      "parts": [
        {
          "type": "body",
          "pages": 16,
          "width": 210,
          "height": 297
        }
      ]
    }
  },
  "16_files_booklet": {
    "files": [
      {
        "name": "1-10_2911261317.png",
        "numPages": 1,
        "pages": [
          {
            "page": 1,
            "height": 297,
            "width": 210
          }
        ]
      },
      {
        "name": "1-11_2911261322.png",
        "numPages": 1,
        "pages": [
          {
            "page": 1,
            "height": 297,
            "width": 210
          }
        ]
      },
      {
        "name": "1-12_2911261329.png",
        "numPages": 1,
        "pages": [
          {
            "page": 1,
            "height": 297,
            "width": 210
          }
        ]
      },
      {
        "name": "1-13_2911261334.png",
        "numPages": 1,
        "pages": [
          {
            "page": 1,
            "height": 297,
            "width": 210
          }
        ]
      },
      {
        "name": "1-14_2911261339.png",
        "numPages": 1,
        "pages": [
          {
            "page": 1,
            "height": 297,
            "width": 210
          }
        ]
      },
      {
        "name": "1-15_2911261344.png",
        "numPages": 1,
        "pages": [
          {
            "page": 1,
            "height": 297,
            "width": 210
          }
        ]
      },
      {
        "name": "1-16_2911261349.png",
        "numPages": 1,
        "pages": [
          {
            "page": 1,
            "height": 297,
            "width": 210
          }
        ]
      },
      {
        "name": "1-1_2911261271.png",
        "numPages": 1,
        "pages": [
          {
            "page": 1,
            "height": 297,
            "width": 210
          }
        ]
      },
      {
        "name": "1-2_2911261276.png",
        "numPages": 1,
        "pages": [
          {
            "page": 1,
            "height": 297,
            "width": 210
          }
        ]
      },
      {
        "name": "1-3_2911261281.png",
        "numPages": 1,
        "pages": [
          {
            "page": 1,
            "height": 297,
            "width": 210
          }
        ]
      },
      {
        "name": "1-4_2911261286.png",
        "numPages": 1,
        "pages": [
          {
            "page": 1,
            "height": 297,
            "width": 210
          }
        ]
      },
      {
        "name": "1-5_2911261291.png",
        "numPages": 1,
        "pages": [
          {
            "page": 1,
            "height": 297,
            "width": 210
          }
        ]
      },
      {
        "name": "1-6_2911261295.png",
        "numPages": 1,
        "pages": [
          {
            "page": 1,
            "height": 297,
            "width": 210
          }
        ]
      },
      {
        "name": "1-7_2911261302.png",
        "numPages": 1,
        "pages": [
          {
            "page": 1,
            "height": 297,
            "width": 210
          }
        ]
      },
      {
        "name": "1-8_2911261308.png",
        "numPages": 1,
        "pages": [
          {
            "page": 1,
            "height": 297,
            "width": 210
          }
        ]
      },
      {
        "name": "1-9_2911261312.png",
        "numPages": 1,
        "pages": [
          {
            "page": 1,
            "height": 297,
            "width": 210
          }
        ]
      }
    ],
    "parameter": {
      "ignoreSequenceForFlat": false,
      "productType": "Booklet",
      "parts": [
        {
          "type": "body",
          "pages": 16,
          "width": 210,
          "height": 297
        }
      ]
    }
  },
  "16_files_cover_body": {
    "files": [
      {
        "name": "1-1 cover_0412262046.png",
        "numPages": 1,
        "pages": [
          {
            "page": 1,
            "height": 297,
            "width": 210
          }
        ]
      },
      {
        "name": "1-10 inside_0412262098.png",
        "numPages": 1,
        "pages": [
          {
            "page": 1,
            "height": 297,
            "width": 210
          }
        ]
      },
      {
        "name": "1-11 inside_0412262102.png",
        "numPages": 1,
        "pages": [
          {
            "page": 1,
            "height": 297,
            "width": 210
          }
        ]
      },
      {
        "name": "1-12 inside_0412262110.png",
        "numPages": 1,
        "pages": [
          {
            "page": 1,
            "height": 297,
            "width": 210
          }
        ]
      },
      {
        "name": "1-13 inside_0412262115.png",
        "numPages": 1,
        "pages": [
          {
            "page": 1,
            "height": 297,
            "width": 210
          }
        ]
      },
      {
        "name": "1-14 inside_0412262121.png",
        "numPages": 1,
        "pages": [
          {
            "page": 1,
            "height": 297,
            "width": 210
          }
        ]
      },
      {
        "name": "1-15 inside back cover_0412262126.png",
        "numPages": 1,
        "pages": [
          {
            "page": 1,
            "height": 297,
            "width": 210
          }
        ]
      },
      {
        "name": "1-16 Back cover_0412262132.png",
        "numPages": 1,
        "pages": [
          {
            "page": 1,
            "height": 297,
            "width": 210
          }
        ]
      },
      {
        "name": "1-2 Inside cover_0412262051.png",
        "numPages": 1,
        "pages": [
          {
            "page": 1,
            "height": 297,
            "width": 210
          }
        ]
      },
      {
        "name": "1-3 inside_0412262057.png",
        "numPages": 1,
        "pages": [
          {
            "page": 1,
            "height": 297,
            "width": 210
          }
        ]
      },
      {
        "name": "1-4 inside_0412262061.png",
        "numPages": 1,
        "pages": [
          {
            "page": 1,
            "height": 297,
            "width": 210
          }
        ]
      },
      {
        "name": "1-5 inside_0412262068.png",
        "numPages": 1,
        "pages": [
          {
            "page": 1,
            "height": 297,
            "width": 210
          }
        ]
      },
      {
        "name": "1-6 inside_0412262074.png",
        "numPages": 1,
        "pages": [
          {
            "page": 1,
            "height": 297,
            "width": 210
          }
        ]
      },
      {
        "name": "1-7 inside_0412262082.png",
        "numPages": 1,
        "pages": [
          {
            "page": 1,
            "height": 297,
            "width": 210
          }
        ]
      },
      {
        "name": "1-8 inside_0412262088.png",
        "numPages": 1,
        "pages": [
          {
            "page": 1,
            "height": 297,
            "width": 210
          }
        ]
      },
      {
        "name": "1-9 inside_0412262093.png",
        "numPages": 1,
        "pages": [
          {
            "page": 1,
            "height": 297,
            "width": 210
          }
        ]
      }
    ],
    "parameter": {
      "ignoreSequenceForFlat": false,
      "productType": "booklet",
      "parts": [
        {
          "type": "body",
          "pages": 12,
          "width": 210,
          "height": 297
        },
        {
          "type": "cover",
          "pages": 4,
          "width": 210,
          "height": 297
        }
      ]
    }
  },
  "8_files": {
    "files": [
      {
        "name": "1-Slide1_0712405711.jpeg",
        "numPages": 1,
        "pages": [
          {
            "page": 1,
            "height": 297,
            "width": 210
          }
        ]
      },
      {
        "name": "1-Slide2_0712405711.jpeg",
        "numPages": 1,
        "pages": [
          {
            "page": 1,
            "height": 297,
            "width": 210
          }
        ]
      },
      {
        "name": "1-Slide3_0712405711.jpeg",
        "numPages": 1,
        "pages": [
          {
            "page": 1,
            "height": 297,
            "width": 210
          }
        ]
      },
      {
        "name": "1-Slide4_0712405711.jpeg",
        "numPages": 1,
        "pages": [
          {
            "page": 1,
            "height": 297,
            "width": 210
          }
        ]
      },
      {
        "name": "1-Slide7_0712405711.jpeg",
        "numPages": 1,
        "pages": [
          {
            "page": 1,
            "height": 297,
            "width": 210
          }
        ]
      },
      {
        "name": "1-Slide8_0712405711.jpeg",
        "numPages": 1,
        "pages": [
          {
            "page": 1,
            "height": 297,
            "width": 210
          }
        ]
      },
      {
        "name": "1-Slide5_0712405711.jpeg",
        "numPages": 1,
        "pages": [
          {
            "page": 1,
            "height": 297,
            "width": 210
          }
        ]
      },
      {
        "name": "1-Slide6_0712405711.jpeg",
        "numPages": 1,
        "pages": [
          {
            "page": 1,
            "height": 297,
            "width": 210
          }
        ]
      }
    ],
    "parameter": {
      "ignoreSequenceForFlat": false,
      "productType": "Booklet",
      "parts": [
        {
          "type": "body",
          "pages": 8,
          "width": 210,
          "height": 297
        }
      ]
    }
  },
  "8_files_cover_as_spread": {
    "files": [
      {
        "name": "1-Slide1_0712405711.jpeg",
        "numPages": 1,
        "pages": [
          {
            "page": 1,
            "height": 297,
            "width": 210
          }
        ]
      },
      {
        "name": "1-Slide2_0712405711.jpeg",
        "numPages": 1,
        "pages": [
          {
            "page": 1,
            "height": 297,
            "width": 210
          }
        ]
      },
      {
        "name": "1-Slide3_0712405711.jpeg",
        "numPages": 1,
        "pages": [
          {
            "page": 1,
            "height": 297,
            "width": 210
          }
        ]
      },
      {
        "name": "1-Slide4_0712405711.jpeg",
        "numPages": 1,
        "pages": [
          {
            "page": 1,
            "height": 297,
            "width": 210
          }
        ]
      },
      {
        "name": "1-Slide7_0712405711.jpeg",
        "numPages": 1,
        "pages": [
          {
            "page": 1,
            "height": 297,
            "width": 210
          }
        ]
      },
      {
        "name": "1-Slide8_0712405711.jpeg",
        "numPages": 1,
        "pages": [
          {
            "page": 1,
            "height": 297,
            "width": 210
          }
        ]
      },
      {
        "name": "1-Slide5_0712405711.jpeg",
        "numPages": 1,
        "pages": [
          {
            "page": 1,
            "height": 297,
            "width": 210
          }
        ]
      },
      {
        "name": "1-Slide6_0712405711.jpeg",
        "numPages": 1,
        "pages": [
          {
            "page": 1,
            "height": 297,
            "width": 420
          }
        ]
      }
    ],
    "parameter": {
      "ignoreSequenceForFlat": false,
      "productType": "Book",
      "parts": [
        {
          "type": "body",
          "pages": 6,
          "width": 210,
          "height": 297
        },
        {
          "type": "cover",
          "pages": 1,
          "width": 420,
          "height": 297
        }
      ]
    }
  },
  "8_files_book": {
    "files": [
      {
        "name": "1-Slide1_0712405711.jpeg",
        "numPages": 1,
        "pages": [
          {
            "page": 1,
            "height": 297,
            "width": 210
          }
        ]
      },
      {
        "name": "1-Slide2_0712405711.jpeg",
        "numPages": 1,
        "pages": [
          {
            "page": 1,
            "height": 297,
            "width": 210
          }
        ]
      },
      {
        "name": "1-Slide3_0712405711.jpeg",
        "numPages": 1,
        "pages": [
          {
            "page": 1,
            "height": 297,
            "width": 210
          }
        ]
      },
      {
        "name": "1-Slide4_0712405711.jpeg",
        "numPages": 1,
        "pages": [
          {
            "page": 1,
            "height": 297,
            "width": 210
          }
        ]
      },
      {
        "name": "1-Slide7_0712405711.jpeg",
        "numPages": 1,
        "pages": [
          {
            "page": 1,
            "height": 297,
            "width": 210
          }
        ]
      },
      {
        "name": "1-Slide8_0712405711.jpeg",
        "numPages": 1,
        "pages": [
          {
            "page": 1,
            "height": 297,
            "width": 210
          }
        ]
      },
      {
        "name": "1-Slide5_0712405711.jpeg",
        "numPages": 1,
        "pages": [
          {
            "page": 1,
            "height": 297,
            "width": 210
          }
        ]
      },
      {
        "name": "1-Slide6_0712405711.jpeg",
        "numPages": 1,
        "pages": [
          {
            "page": 1,
            "height": 297,
            "width": 210
          }
        ]
      }
    ],
    "parameter": {
      "ignoreSequenceForFlat": false,
      "productType": "Multipartbooklet",
      "parts": [
        {
          "type": "body",
          "pages": 4,
          "width": 210,
          "height": 297
        },
        {
          "type": "cover",
          "pages": 4,
          "width": 210,
          "height": 297
        }
      ]
    }
  },
  "1_file_book_unequal_pages": {
    "files": [
      {
        "name": "1-Slide1_0712405711.jpeg",
        "numPages": 8,
        "pages": [
          {
            "page": 1,
            "height": 297,
            "width": 210
          },
          {
            "page": 1,
            "height": 297,
            "width": 210
          },
          {
            "page": 1,
            "height": 297,
            "width": 210
          },
          {
            "page": 1,
            "height": 297,
            "width": 210
          },
          {
            "page": 1,
            "height": 297,
            "width": 210
          },
          {
            "page": 1,
            "height": 297,
            "width": 210
          },
          {
            "page": 1,
            "height": 297,
            "width": 210
          },
          {
            "page": 1,
            "height": 297,
            "width": 210
          }
        ]
      }
    ],
    "parameter": {
      "ignoreSequenceForFlat": false,
      "productType": "Book",
      "parts": [
        {
          "type": "body",
          "pages": 4,
          "width": 210,
          "height": 297
        },
        {
          "type": "cover",
          "pages": 2,
          "width": 210,
          "height": 297
        }
      ]
    }
  },
  "1_file_book_less_pages": {
    "files": [
      {
        "name": "1-Slide1_0712405711.jpeg",
        "numPages": 8,
        "pages": [
          {
            "page": 1,
            "height": 297,
            "width": 210
          },
          {
            "page": 2,
            "height": 297,
            "width": 210
          },
          {
            "page": 3,
            "height": 297,
            "width": 210
          },
          {
            "page": 4,
            "height": 297,
            "width": 210
          },
          {
            "page": 5,
            "height": 297,
            "width": 210
          },
          {
            "page": 6,
            "height": 297,
            "width": 210
          },
          {
            "page": 7,
            "height": 297,
            "width": 210
          },
          {
            "page": 8,
            "height": 297,
            "width": 210
          }
        ]
      }
    ],
    "parameter": {
      "ignoreSequenceForFlat": false,
      "productType": "Book",
      "parts": [
        {
          "type": "body",
          "pages": 10,
          "width": 210,
          "height": 297
        },
        {
          "type": "cover",
          "pages": 2,
          "width": 210,
          "height": 297
        }
      ]
    }
  },
  "1_file_book": {
    "files": [
      {
        "name": "1-Slide1_0712405711.jpeg",
        "numPages": 8,
        "pages": [
          {
            "page": 1,
            "height": 297,
            "width": 210
          },
          {
            "page": 1,
            "height": 297,
            "width": 210
          },
          {
            "page": 1,
            "height": 297,
            "width": 210
          },
          {
            "page": 1,
            "height": 297,
            "width": 210
          },
          {
            "page": 1,
            "height": 297,
            "width": 210
          },
          {
            "page": 1,
            "height": 297,
            "width": 210
          },
          {
            "page": 1,
            "height": 297,
            "width": 210
          },
          {
            "page": 1,
            "height": 297,
            "width": 210
          }
        ]
      }
    ],
    "parameter": {
      "ignoreSequenceForFlat": false,
      "productType": "Book",
      "parts": [
        {
          "type": "body",
          "pages": 4,
          "width": 210,
          "height": 297
        },
        {
          "type": "cover",
          "pages": 4,
          "width": 210,
          "height": 297
        }
      ]
    }
  },
  "6_files_3_variants_flat": {
    "files": [
      {
        "name": "1-4x6 PostCardFront-Limber Pine_1721171867.pdf"
      },
      {
        "name": "1-4x6 PostCardFront-Splater Cone_1721181818.pdf"
      },
      {
        "name": "1-4x6 PostCardFront-Volcanic Detail_1721181646.pdf"
      },
      {
        "name": "1-4x6 PostCardBack-Limber Pine_1721171837.pdf"
      },
      {
        "name": "1-4x6 PostCardBack-Splater Cone_1721181813.pdf"
      },
      {
        "name": "1-4x6 PostCardBack-Volcanic Detail_1721182646.pdf"
      }
    ],
    "parameter": {
      "ignoreSequenceForFlat": false,
      "productType": "FlatWork",
      "numVariants": 3,
      "parts": [
        {
          "type": "body",
          "pages": 2,
          "width": 210,
          "height": 297
        }
      ]
    }
  },
  "6_files_2_variants_flat_to_many_files": {
    "files": [
      {
        "name": "1-4x6 PostCardFront-Limber Pine_1721171867.pdf"
      },
      {
        "name": "1-4x6 PostCardFront-Splater Cone_1721181818.pdf"
      },
      {
        "name": "1-4x6 PostCardFront-Volcanic Detail_1721181646.pdf"
      },
      {
        "name": "1-4x6 PostCardBack-Limber Pine_1721171837.pdf"
      },
      {
        "name": "1-4x6 PostCardBack-Splater Cone_1721181813.pdf"
      },
      {
        "name": "1-4x6 PostCardBack-Volcanic Detail_1721182646.pdf"
      }
    ],
    "parameter": {
      "ignoreSequenceForFlat": false,
      "productType": "FlatWork",
      "numVariants": 2,
      "parts": [
        {
          "type": "body",
          "pages": 2,
          "width": 210,
          "height": 297
        }
      ]
    }
  },
  "128_files_sequenceFromName": {
    "files": [
      {
        "name": "1-page 1.jpg",
        "numPages": 1
      },
      {
        "name": "1-page 10.png",
        "numPages": 1
      },
      {
        "name": "1-page 100.png",
        "numPages": 1
      },
      {
        "name": "1-page 101.png",
        "numPages": 1
      },
      {
        "name": "1-page 102.png",
        "numPages": 1
      },
      {
        "name": "1-page 103.png",
        "numPages": 1
      },
      {
        "name": "1-page 104.png",
        "numPages": 1
      },
      {
        "name": "1-page 105.png",
        "numPages": 1
      },
      {
        "name": "1-page 106.png",
        "numPages": 1
      },
      {
        "name": "1-page 107.png",
        "numPages": 1
      },
      {
        "name": "1-page 108.png",
        "numPages": 1
      },
      {
        "name": "1-page 109.png",
        "numPages": 1
      },
      {
        "name": "1-page 11.png",
        "numPages": 1
      },
      {
        "name": "1-page 110.png",
        "numPages": 1
      },
      {
        "name": "1-page 111.png",
        "numPages": 1
      },
      {
        "name": "1-page 112.png",
        "numPages": 1
      },
      {
        "name": "1-page 113.png",
        "numPages": 1
      },
      {
        "name": "1-page 114.png",
        "numPages": 1
      },
      {
        "name": "1-page 115.png",
        "numPages": 1
      },
      {
        "name": "1-page 116.png",
        "numPages": 1
      },
      {
        "name": "1-page 117.png",
        "numPages": 1
      },
      {
        "name": "1-page 118.png",
        "numPages": 1
      },
      {
        "name": "1-page 119.png",
        "numPages": 1
      },
      {
        "name": "1-page 12.png",
        "numPages": 1
      },
      {
        "name": "1-page 120.png",
        "numPages": 1
      },
      {
        "name": "1-page 121.png",
        "numPages": 1
      },
      {
        "name": "1-page 122.png",
        "numPages": 1
      },
      {
        "name": "1-page 123.png",
        "numPages": 1
      },
      {
        "name": "1-page 124.png",
        "numPages": 1
      },
      {
        "name": "1-page 125.png",
        "numPages": 1
      },
      {
        "name": "1-page 126.png",
        "numPages": 1
      },
      {
        "name": "1-page 127.png",
        "numPages": 1
      },
      {
        "name": "1-page 128.pdf",
        "numPages": 1
      },
      {
        "name": "1-page 13.png",
        "numPages": 1
      },
      {
        "name": "1-page 14.png",
        "numPages": 1
      },
      {
        "name": "1-page 15.png",
        "numPages": 1
      },
      {
        "name": "1-page 16.png",
        "numPages": 1
      },
      {
        "name": "1-Page 17.png",
        "numPages": 1
      },
      {
        "name": "1-page 18.png",
        "numPages": 1
      },
      {
        "name": "1-page 19.png",
        "numPages": 1
      },
      {
        "name": "1-page 2.png",
        "numPages": 1
      },
      {
        "name": "1-page 20.png",
        "numPages": 1
      },
      {
        "name": "1-page 21.png",
        "numPages": 1
      },
      {
        "name": "1-page 22.png",
        "numPages": 1
      },
      {
        "name": "1-page 23.png",
        "numPages": 1
      },
      {
        "name": "1-page 24.png",
        "numPages": 1
      },
      {
        "name": "1-page 25.png",
        "numPages": 1
      },
      {
        "name": "1-page 26.png",
        "numPages": 1
      },
      {
        "name": "1-page 27.png",
        "numPages": 1
      },
      {
        "name": "1-page 28.png",
        "numPages": 1
      },
      {
        "name": "1-page 29.png",
        "numPages": 1
      },
      {
        "name": "1-page 3.png",
        "numPages": 1
      },
      {
        "name": "1-page 30.png",
        "numPages": 1
      },
      {
        "name": "1-page 31.png",
        "numPages": 1
      },
      {
        "name": "1-page 32.png",
        "numPages": 1
      },
      {
        "name": "1-page 33.png",
        "numPages": 1
      },
      {
        "name": "1-page 34.png",
        "numPages": 1
      },
      {
        "name": "1-page 35.png",
        "numPages": 1
      },
      {
        "name": "1-page 36.png",
        "numPages": 1
      },
      {
        "name": "1-page 37.png",
        "numPages": 1
      },
      {
        "name": "1-page 38.png",
        "numPages": 1
      },
      {
        "name": "1-page 39.png",
        "numPages": 1
      },
      {
        "name": "1-page 4.png",
        "numPages": 1
      },
      {
        "name": "1-page 40.jpg",
        "numPages": 1
      },
      {
        "name": "1-page 41.jpg",
        "numPages": 1
      },
      {
        "name": "1-page 42.jpg",
        "numPages": 1
      },
      {
        "name": "1-page 43.jpg",
        "numPages": 1
      },
      {
        "name": "1-page 44.jpg",
        "numPages": 1
      },
      {
        "name": "1-page 45.png",
        "numPages": 1
      },
      {
        "name": "1-page 46.png",
        "numPages": 1
      },
      {
        "name": "1-page 47.png",
        "numPages": 1
      },
      {
        "name": "1-page 48.png",
        "numPages": 1
      },
      {
        "name": "1-page 49.png",
        "numPages": 1
      },
      {
        "name": "1-page 5.png",
        "numPages": 1
      },
      {
        "name": "1-page 50.png",
        "numPages": 1
      },
      {
        "name": "1-page 51.png",
        "numPages": 1
      },
      {
        "name": "1-page 52.jpg",
        "numPages": 1
      },
      {
        "name": "1-page 53.png",
        "numPages": 1
      },
      {
        "name": "1-page 54.png",
        "numPages": 1
      },
      {
        "name": "1-page 55.png",
        "numPages": 1
      },
      {
        "name": "1-page 56.png",
        "numPages": 1
      },
      {
        "name": "1-page 57.png",
        "numPages": 1
      },
      {
        "name": "1-page 58.png",
        "numPages": 1
      },
      {
        "name": "1-page 59.png",
        "numPages": 1
      },
      {
        "name": "1-page 6.png",
        "numPages": 1
      },
      {
        "name": "1-page 60.png",
        "numPages": 1
      },
      {
        "name": "1-page 61.png",
        "numPages": 1
      },
      {
        "name": "1-page 62.png",
        "numPages": 1
      },
      {
        "name": "1-page 63.png",
        "numPages": 1
      },
      {
        "name": "1-page 64.png",
        "numPages": 1
      },
      {
        "name": "1-page 65.png",
        "numPages": 1
      },
      {
        "name": "1-page 66.png",
        "numPages": 1
      },
      {
        "name": "1-page 67.png",
        "numPages": 1
      },
      {
        "name": "1-page 68.png",
        "numPages": 1
      },
      {
        "name": "1-page 69.png",
        "numPages": 1
      },
      {
        "name": "1-page 7.png",
        "numPages": 1
      },
      {
        "name": "1-page 70.png",
        "numPages": 1
      },
      {
        "name": "1-page 71.png",
        "numPages": 1
      },
      {
        "name": "1-page 72.png",
        "numPages": 1
      },
      {
        "name": "1-page 73.png",
        "numPages": 1
      },
      {
        "name": "1-page 74.png",
        "numPages": 1
      },
      {
        "name": "1-page 75.png",
        "numPages": 1
      },
      {
        "name": "1-page 76.png",
        "numPages": 1
      },
      {
        "name": "1-page 77.png",
        "numPages": 1
      },
      {
        "name": "1-page 78.png",
        "numPages": 1
      },
      {
        "name": "1-page 79.png",
        "numPages": 1
      },
      {
        "name": "1-page 8.png",
        "numPages": 1
      },
      {
        "name": "1-page 80.png",
        "numPages": 1
      },
      {
        "name": "1-page 81.png",
        "numPages": 1
      },
      {
        "name": "1-page 82.png",
        "numPages": 1
      },
      {
        "name": "1-page 83.png",
        "numPages": 1
      },
      {
        "name": "1-page 84.png",
        "numPages": 1
      },
      {
        "name": "1-page 85.png",
        "numPages": 1
      },
      {
        "name": "1-page 86.png",
        "numPages": 1
      },
      {
        "name": "1-page 87.png",
        "numPages": 1
      },
      {
        "name": "1-page 88.png",
        "numPages": 1
      },
      {
        "name": "1-page 89.png",
        "numPages": 1
      },
      {
        "name": "1-page 9.png",
        "numPages": 1
      },
      {
        "name": "1-page 90.png",
        "numPages": 1
      },
      {
        "name": "1-page 91.png",
        "numPages": 1
      },
      {
        "name": "1-page 92.png",
        "numPages": 1
      },
      {
        "name": "1-page 93.png",
        "numPages": 1
      },
      {
        "name": "1-page 94.png",
        "numPages": 1
      },
      {
        "name": "1-page 95.png",
        "numPages": 1
      },
      {
        "name": "1-page 96.png",
        "numPages": 1
      },
      {
        "name": "1-page 97.png",
        "numPages": 1
      },
      {
        "name": "1-page 98.png",
        "numPages": 1
      },
      {
        "name": "1-page 99.png",
        "numPages": 1
      }
    ],
    "parameter": {
      "ignoreSequenceForFlat": false,
      "productType": "Book",
      "parts": [
        {
          "type": "body",
          "pages": 124,
          "width": 210,
          "height": 297
        },
        {
          "type": "cover",
          "pages": 4,
          "width": 210,
          "height": 297
        }
      ]
    }
  },
  "2_files_postcard": {
    "files": [
      {
        "name": "1-DFND_POST CD_BACK[4]_22071913533124.pdf"
      },
      {
        "name": "1-DFND_POST CD_FRONT[1]_22071913533124.pdf"
      }
    ],
    "parameter": {
      "ignoreSequenceForFlat": false,
      "productType": "FlatWork",
      "numVariants": 1,
      "parts": [
        {
          "type": "body",
          "pages": 2,
          "width": 210,
          "height": 297
        }
      ]
    }
  },
  "10_variants_brochure": {
    "parameter": {
      "parts": [
        {
          "type": "body",
          "pages": 20,
          "width": 7,
          "height": 10
        }
      ],
      "ignoreSequenceForFlat": false,
      "productType": "Brochure",
      "numVariants": 10
    },
    "files": [
      {
        "name": "1-1.png",
        "filePath": "C:\\Workflow\\switch_internal\\backing\\Auto Preflight [2022_6]\\automanaged\\singleP2\\_29THQ_670588 1\\1-1.png",
        "numPages": 1,
        "pages": [
          {
            "page": 1,
            "width": 2000,
            "height": 1400
          }
        ]
      },
      {
        "name": "1-10.png",
        "filePath": "C:\\Workflow\\switch_internal\\backing\\Auto Preflight [2022_6]\\automanaged\\singleP2\\_29THQ_670588 1\\1-10.png",
        "numPages": 1,
        "pages": [
          {
            "page": 1,
            "width": 2000,
            "height": 1400
          }
        ]
      },
      {
        "name": "1-13.png",
        "filePath": "C:\\Workflow\\switch_internal\\backing\\Auto Preflight [2022_6]\\automanaged\\singleP2\\_29THQ_670588 1\\1-13.png",
        "numPages": 1,
        "pages": [
          {
            "page": 1,
            "width": 2000,
            "height": 1400
          }
        ]
      },
      {
        "name": "1-14.png",
        "filePath": "C:\\Workflow\\switch_internal\\backing\\Auto Preflight [2022_6]\\automanaged\\singleP2\\_29THQ_670588 1\\1-14.png",
        "numPages": 1,
        "pages": [
          {
            "page": 1,
            "width": 2000,
            "height": 1400
          }
        ]
      },
      {
        "name": "1-15.png",
        "filePath": "C:\\Workflow\\switch_internal\\backing\\Auto Preflight [2022_6]\\automanaged\\singleP2\\_29THQ_670588 1\\1-15.png",
        "numPages": 1,
        "pages": [
          {
            "page": 1,
            "width": 2000,
            "height": 1400
          }
        ]
      },
      {
        "name": "1-16.png",
        "filePath": "C:\\Workflow\\switch_internal\\backing\\Auto Preflight [2022_6]\\automanaged\\singleP2\\_29THQ_670588 1\\1-16.png",
        "numPages": 1,
        "pages": [
          {
            "page": 1,
            "width": 2000,
            "height": 1400
          }
        ]
      },
      {
        "name": "1-17.png",
        "filePath": "C:\\Workflow\\switch_internal\\backing\\Auto Preflight [2022_6]\\automanaged\\singleP2\\_29THQ_670588 1\\1-17.png",
        "numPages": 1,
        "pages": [
          {
            "page": 1,
            "width": 2000,
            "height": 1400
          }
        ]
      },
      {
        "name": "1-18.png",
        "filePath": "C:\\Workflow\\switch_internal\\backing\\Auto Preflight [2022_6]\\automanaged\\singleP2\\_29THQ_670588 1\\1-18.png",
        "numPages": 1,
        "pages": [
          {
            "page": 1,
            "width": 2000,
            "height": 1400
          }
        ]
      },
      {
        "name": "1-19.png",
        "filePath": "C:\\Workflow\\switch_internal\\backing\\Auto Preflight [2022_6]\\automanaged\\singleP2\\_29THQ_670588 1\\1-19.png",
        "numPages": 1,
        "pages": [
          {
            "page": 1,
            "width": 2000,
            "height": 1400
          }
        ]
      },
      {
        "name": "1-2.png",
        "filePath": "C:\\Workflow\\switch_internal\\backing\\Auto Preflight [2022_6]\\automanaged\\singleP2\\_29THQ_670588 1\\1-2.png",
        "numPages": 1,
        "pages": [
          {
            "page": 1,
            "width": 2000,
            "height": 1400
          }
        ]
      },
      {
        "name": "1-20.png",
        "filePath": "C:\\Workflow\\switch_internal\\backing\\Auto Preflight [2022_6]\\automanaged\\singleP2\\_29THQ_670588 1\\1-20.png",
        "numPages": 1,
        "pages": [
          {
            "page": 1,
            "width": 2000,
            "height": 1400
          }
        ]
      },
      {
        "name": "1-21.png",
        "filePath": "C:\\Workflow\\switch_internal\\backing\\Auto Preflight [2022_6]\\automanaged\\singleP2\\_29THQ_670588 1\\1-21.png",
        "numPages": 1,
        "pages": [
          {
            "page": 1,
            "width": 2000,
            "height": 1400
          }
        ]
      },
      {
        "name": "1-22.png",
        "filePath": "C:\\Workflow\\switch_internal\\backing\\Auto Preflight [2022_6]\\automanaged\\singleP2\\_29THQ_670588 1\\1-22.png",
        "numPages": 1,
        "pages": [
          {
            "page": 1,
            "width": 2000,
            "height": 1400
          }
        ]
      },
      {
        "name": "1-3.png",
        "filePath": "C:\\Workflow\\switch_internal\\backing\\Auto Preflight [2022_6]\\automanaged\\singleP2\\_29THQ_670588 1\\1-3.png",
        "numPages": 1,
        "pages": [
          {
            "page": 1,
            "width": 2000,
            "height": 1400
          }
        ]
      },
      {
        "name": "1-4.png",
        "filePath": "C:\\Workflow\\switch_internal\\backing\\Auto Preflight [2022_6]\\automanaged\\singleP2\\_29THQ_670588 1\\1-4.png",
        "numPages": 1,
        "pages": [
          {
            "page": 1,
            "width": 2000,
            "height": 1400
          }
        ]
      },
      {
        "name": "1-5.png",
        "filePath": "C:\\Workflow\\switch_internal\\backing\\Auto Preflight [2022_6]\\automanaged\\singleP2\\_29THQ_670588 1\\1-5.png",
        "numPages": 1,
        "pages": [
          {
            "page": 1,
            "width": 2000,
            "height": 1400
          }
        ]
      },
      {
        "name": "1-6.png",
        "filePath": "C:\\Workflow\\switch_internal\\backing\\Auto Preflight [2022_6]\\automanaged\\singleP2\\_29THQ_670588 1\\1-6.png",
        "numPages": 1,
        "pages": [
          {
            "page": 1,
            "width": 2000,
            "height": 1400
          }
        ]
      },
      {
        "name": "1-7.png",
        "filePath": "C:\\Workflow\\switch_internal\\backing\\Auto Preflight [2022_6]\\automanaged\\singleP2\\_29THQ_670588 1\\1-7.png",
        "numPages": 1,
        "pages": [
          {
            "page": 1,
            "width": 2000,
            "height": 1400
          }
        ]
      },
      {
        "name": "1-8.png",
        "filePath": "C:\\Workflow\\switch_internal\\backing\\Auto Preflight [2022_6]\\automanaged\\singleP2\\_29THQ_670588 1\\1-8.png",
        "numPages": 1,
        "pages": [
          {
            "page": 1,
            "width": 2000,
            "height": 1400
          }
        ]
      },
      {
        "name": "1-9.png",
        "filePath": "C:\\Workflow\\switch_internal\\backing\\Auto Preflight [2022_6]\\automanaged\\singleP2\\_29THQ_670588 1\\1-9.png",
        "numPages": 1,
        "pages": [
          {
            "page": 1,
            "width": 2000,
            "height": 1400
          }
        ]
      }
    ]
  },
  "2_files_book_with_spine": {
    "files": [
      {
        "name": "1-Slide1_0712405711.jpeg",
        "numPages": 8,
        "pages": [
          {
            "page": 1,
            "height": 297,
            "width": 210
          },
          {
            "page": 1,
            "height": 297,
            "width": 210
          },
          {
            "page": 1,
            "height": 297,
            "width": 210
          },
          {
            "page": 1,
            "height": 297,
            "width": 210
          },
          {
            "page": 1,
            "height": 297,
            "width": 210
          },
          {
            "page": 1,
            "height": 297,
            "width": 210
          },
          {
            "page": 1,
            "height": 297,
            "width": 210
          },
          {
            "page": 1,
            "height": 297,
            "width": 210
          }
        ]
      },
      {
        "name": "1-spine_0712405711.jpeg",
        "numPages": 1,
        "pages": [
          {
            "page": 1,
            "height": 297,
            "width": 210
          }
        ]
      }
    ],
    "parameter": {
      "ignoreSequenceForFlat": false,
      "productType": "Book",
      "parts": [
        {
          "type": "body",
          "pages": 4,
          "width": 210,
          "height": 297
        },
        {
          "type": "cover",
          "pages": 4,
          "width": 210,
          "height": 297
        }
      ]
    }
  },
  "multiple_files_book_with_spine": {
    "files": [
      {
        "name": "1-Slide1_0712405711.jpeg",
        "numPages": 1,
        "pages": [
          {
            "page": 1,
            "height": 297,
            "width": 210
          }
        ]
      },
      {
        "name": "1-Slide2_0712405711.jpeg",
        "numPages": 1,
        "pages": [
          {
            "page": 1,
            "height": 297,
            "width": 210
          }
        ]
      },
      {
        "name": "1-Slide3_0712405711.jpeg",
        "numPages": 1,
        "pages": [
          {
            "page": 1,
            "height": 297,
            "width": 210
          }
        ]
      },
      {
        "name": "1-Slide4_0712405711.jpeg",
        "numPages": 1,
        "pages": [
          {
            "page": 1,
            "height": 297,
            "width": 210
          }
        ]
      },
      {
        "name": "1-Slide5_0712405711.jpeg",
        "numPages": 1,
        "pages": [
          {
            "page": 1,
            "height": 297,
            "width": 210
          }
        ]
      },
      {
        "name": "1-Slide6_0712405711.jpeg",
        "numPages": 1,
        "pages": [
          {
            "page": 1,
            "height": 297,
            "width": 210
          }
        ]
      },
      {
        "name": "1-u1_cover_0712405711.jpeg",
        "numPages": 1,
        "pages": [
          {
            "page": 1,
            "height": 297,
            "width": 420
          }
        ]
      },
      {
        "name": "1-u2_cover_0712405711.jpeg",
        "numPages": 1,
        "pages": [
          {
            "page": 1,
            "height": 297,
            "width": 420
          }
        ]
      },
      {
        "name": "1-spine_0712405711.jpeg",
        "numPages": 1,
        "pages": [
          {
            "page": 1,
            "height": 297,
            "width": 5
          }
        ]
      }
    ],
    "parameter": {
      "ignoreSequenceForFlat": false,
      "productType": "Book",
      "parts": [
        {
          "type": "body",
          "pages": 6,
          "width": 210,
          "height": 297
        },
        {
          "type": "cover",
          "pages": 2,
          "width": 420,
          "height": 297
        }
      ]
    }
  },
  "10_files_5_variants_flat": {
    "files": [
      {
        "name": "1-2022-summerBack 1_2918173244.pdf"
      },
      {
        "name": "1-2022-summerBack 2_2918173266.pdf"
      },
      {
        "name": "1-2022-summerBack 3_2918173288.pdf"
      },
      {
        "name": "1-2022-summerBack 4_2918173313.pdf"
      },
      {
        "name": "1-2022-summerBack 5_2918173336.pdf"
      },
      {
        "name": "1-2022-summerFront 1_2918173357.pdf"
      },
      {
        "name": "1-2022-summerFront 2_2918173477.pdf"
      },
      {
        "name": "1-2022-summerFront 3_2918173621.pdf"
      },
      {
        "name": "1-2022-summerFront 4_2918173744.pdf"
      },
      {
        "name": "1-2022-summerFront 5_2918173874.pdf"
      }
    ],
    "parameter": {
      "inputFolderName": "myInputFolder",
      "ignoreSequenceForFlat": false,
      "productType": "FlatWork",
      "numVariants": 5,
      "parts": [
        {
          "type": "body",
          "pages": 10,
          "width": 210,
          "height": 297
        }
      ]
    }
  },
  "26_files_sequence_by_month": {
    "files": [
      {
        "name": "1-April DT 2023 4_0309554147.pdf"
      },
      {
        "name": "1-August DT 2023 2_0310035892.pdf"
      },
      {
        "name": "1-Dec DT 2023 4_0310035922.pdf"
      },
      {
        "name": "1-Feb DT 2023_0309554172.pdf"
      },
      {
        "name": "1-Jan DT 2023 2_0309554194.pdf"
      },
      {
        "name": "1-July DT 2023_0310035946.pdf"
      },
      {
        "name": "1-June DT 2023_0309554222.pdf"
      },
      {
        "name": "1-Mar DT 2023_0309554246.pdf"
      },
      {
        "name": "1-May DT 2023_0309554270.pdf"
      },
      {
        "name": "1-Nov DT 2023_0310035976.pdf"
      },
      {
        "name": "1-Oct DT 2023 2_0310035999.pdf"
      },
      {
        "name": "1-Sept DT 2023 3_0310040026.pdf"
      },
      {
        "name": "1-April DT Back 2023 4_0309554147.pdf"
      },
      {
        "name": "1-August DT Back 2023 2_0310035892.pdf"
      },
      {
        "name": "1-Dec DT Back 2023 4_0310035922.pdf"
      },
      {
        "name": "1-Feb DT Back 2023_0309554172.pdf"
      },
      {
        "name": "1-Jan DT Back 2023 2_0309554194.pdf"
      },
      {
        "name": "1-July DT Back 2023_0310035946.pdf"
      },
      {
        "name": "1-June DT Back 2023_0309554222.pdf"
      },
      {
        "name": "1-Mar DT Back 2023_0309554246.pdf"
      },
      {
        "name": "1-May DT Back 2023_0309554270.pdf"
      },
      {
        "name": "1-Nov DT Back 2023_0310035976.pdf"
      },
      {
        "name": "1-Oct DT Back 2023 2_0310035999.pdf"
      },
      {
        "name": "1-Sept DT Back 2023 3_0310040026.pdf"
      },
      {
        "name": "cover back 2023 _0310035999.pdf"
      },
      {
        "name": "cover front 2023 _0310040026.pdf"
      }
    ],
    "parameter": {
      "inputFolderName": "myInputFolder",
      "ignoreSequenceForFlat": false,
      "productType": "Booklet",
      "numVariants": 1,
      "parts": [
        {
          "type": "body",
          "pages": 26,
          "width": 210,
          "height": 297
        }
      ]
    }
  },
  "14_files_sequence_by_month": {
    "files": [
      {
        "name": "1-April DT 2023 4_0309554147.pdf"
      },
      {
        "name": "1-August DT 2023 2_0310035892.pdf"
      },
      {
        "name": "1-Dec DT 2023 4_0310035922.pdf"
      },
      {
        "name": "1-Feb DT 2023_0309554172.pdf"
      },
      {
        "name": "1-Jan DT 2023 2_0309554194.pdf"
      },
      {
        "name": "1-July DT 2023_0310035946.pdf"
      },
      {
        "name": "1-June DT 2023_0309554222.pdf"
      },
      {
        "name": "1-Mar DT 2023_0309554246.pdf"
      },
      {
        "name": "1-May DT 2023_0309554270.pdf"
      },
      {
        "name": "1-Nov DT 2023_0310035976.pdf"
      },
      {
        "name": "1-Oct DT 2023 2_0310035999.pdf"
      },
      {
        "name": "1-Sept DT 2023 3_0310040026.pdf"
      },
      {
        "name": "cover back 2023 _0310035999.pdf"
      },
      {
        "name": "cover front 2023 _0310040026.pdf"
      }
    ],
    "parameter": {
      "inputFolderName": "myInputFolder",
      "ignoreSequenceForFlat": false,
      "productType": "Booklet",
      "numVariants": 1,
      "parts": [
        {
          "type": "body",
          "pages": 14,
          "width": 210,
          "height": 297
        }
      ]
    }
  },
  "17_files_sequence_by_month": {
    "files": [
      {
        "name": "1-April DT 2023 4_0309554147.pdf"
      },
      {
        "name": "1-August DT 2023 2_0310035892.pdf"
      },
      {
        "name": "1-Dec DT 2023 4_0310035922.pdf"
      },
      {
        "name": "1-Feb DT 2023_0309554172.pdf"
      },
      {
        "name": "1-Jan DT 2023 2_0309554194.pdf"
      },
      {
        "name": "1-July DT 2023_0310035946.pdf"
      },
      {
        "name": "1-June DT 2023_0309554222.pdf"
      },
      {
        "name": "1-Mar DT 2023_0309554246.pdf"
      },
      {
        "name": "1-May DT 2023_0309554270.pdf"
      },
      {
        "name": "1-Dec DT Back 2023 4_0310035922.pdf"
      },
      {
        "name": "1-Feb DT Back 2023_0309554172.pdf"
      },
      {
        "name": "1-Jan DT Back 2023 2_0309554194.pdf"
      },
      {
        "name": "1-July DT Back 2023_0310035946.pdf"
      },
      {
        "name": "1-Nov DT 2023_0310035976.pdf"
      },
      {
        "name": "1-Oct DT 2023 2_0310035999.pdf"
      },
      {
        "name": "1-Sept DT 2023 3_0310040026.pdf"
      },
      {
        "name": "cover back 2023 2_0310035999.pdf"
      },
      {
        "name": "cover front 2023 3_0310040026.pdf"
      }
    ],
    "parameter": {
      "inputFolderName": "myInputFolder",
      "ignoreSequenceForFlat": false,
      "productType": "Booklet",
      "numVariants": 1,
      "parts": [
        {
          "type": "body",
          "pages": 14,
          "width": 210,
          "height": 297
        }
      ]
    }
  },
  "12_files_sequence_by_month": {
    "files": [
      {
        "name": "1-April DT 2023 4_0309554147.pdf"
      },
      {
        "name": "1-August DT 2023 2_0310035892.pdf"
      },
      {
        "name": "1-Dec DT 2023 4_0310035922.pdf"
      },
      {
        "name": "1-Feb DT 2023_0309554172.pdf"
      },
      {
        "name": "1-Jan DT 2023 2_0309554194.pdf"
      },
      {
        "name": "1-July DT 2023_0310035946.pdf"
      },
      {
        "name": "1-June DT 2023_0309554222.pdf"
      },
      {
        "name": "1-Mar DT 2023_0309554246.pdf"
      },
      {
        "name": "1-May DT 2023_0309554270.pdf"
      },
      {
        "name": "1-Nov DT 2023_0310035976.pdf"
      },
      {
        "name": "1-Oct DT 2023 2_0310035999.pdf"
      },
      {
        "name": "1-Sept DT 2023 3_0310040026.pdf"
      }
    ],
    "parameter": {
      "inputFolderName": "myInputFolder",
      "ignoreSequenceForFlat": false,
      "productType": "Booklet",
      "numVariants": 1,
      "parts": [
        {
          "type": "body",
          "pages": 12,
          "width": 210,
          "height": 297
        }
      ]
    }
  },
  "12_files_with_cover_files": {
    "files": [
      {
        "name": "April.jpg"
      },
      {
        "name": "August.jpg"
      },
      {
        "name": "Deckblatt.jpg"
      },
      {
        "name": "Dezember.jpg"
      },
      {
        "name": "Februar.jpg"
      },
      {
        "name": "Januar.jpg"
      },
      {
        "name": "Juli.jpg"
      },
      {
        "name": "Juni.jpg"
      },
      {
        "name": "Maerz.jpg"
      },
      {
        "name": "Mai.jpg"
      },
      {
        "name": "November.jpg"
      },
      {
        "name": "Oktober.jpg"
      },
      {
        "name": "Rueckseite.jpg"
      },
      {
        "name": "September.jpg"
      }
    ],
    "parameter": {
      "ignoreSequenceForFlat": false,
      "productType": "Booklet",
      "parts": [
        {
          "type": "body",
          "pages": 12,
          "width": 210,
          "height": 297
        }
      ]
    }
  },
  "4_files_cover_front_back_spine": {
    "files": [
      {
        "name": "1-Back Cover_1418382791.pdf"
      },
      {
        "name": "1-Front Cover_1418382779.pdf"
      },
      {
        "name": "1-Inside Pages_1418382829.pdf"
      },
      {
        "name": "1-Spine_1418382816.pdf"
      }
    ],
    "parameter": {
      "ignoreSequenceForFlat": false,
      "productType": "Book",
      "parts": [
        {
          "type": "body",
          "pages": 8,
          "width": 210,
          "height": 297
        },
        {
          "type": "cover",
          "pages": 4,
          "width": 210,
          "height": 297
        }
      ]
    }
  }
  ,
  "26_files_calendar_image_grid": {
    "files": [
      { "name": "cover_front.pdf"},
      { "name": "cover_back.pdf"},
      { "name": "Januar2023 image.pdf"},
      { "name": "Januar2023 grid.pdf"},
      { "name": "Februar2023 image.pdf"},
      { "name": "Februar2023 grid.pdf"},
      { "name": "Maerz2023 image.pdf"},
      { "name": "Maerz2023 grid.pdf"},
      { "name": "April image.pdf"},
      { "name": "April grid.pdf"},
      { "name": "Mai2023 image.pdf"},
      { "name": "Mai2023 grid.pdf"},
      { "name": "Juni2023 image.pdf"},
      { "name": "Juni2023 grid.pdf"},
      { "name": "Juli2023 image.pdf"},
      { "name": "Juli2023 grid.pdf"},
      { "name": "August2023 image.pdf"},
      { "name": "August2023 grid.pdf"},
      { "name": "September2023 image.pdf"},
      { "name": "September2023 grid.pdf"},
      { "name": "Oktober2023 image.pdf"},
      { "name": "Oktober2023 grid.pdf"},
      { "name": "November2023 image.pdf"},
      { "name": "November2023 grid.pdf"},
      { "name": "Dezember2023 image.pdf"},
      { "name": "Dezember2023 grid.pdf"}
    ],
    "parameter": {
      "ignoreSequenceForFlat": false,
      "productType": "Multipartbooklet",
      "parts": [
        {
          "type": "body",
          "pages": 26,
          "width": 210,
          "height": 297
        },
        {
          "type": "cover",
          "pages": 2,
          "width": 210,
          "height": 297
        }
      ]
    }
  },
  "26_files_calendar_top_bottom": {
    "files": [
      { "name": "cover_front.pdf"},
      { "name": "cover_back.pdf"},
      { "name": "Januar2023 top.pdf"},
      { "name": "Januar2023 bottom.pdf"},
      { "name": "Februar2023 top.pdf"},
      { "name": "Februar2023 bottom.pdf"},
      { "name": "Maerz2023 top.pdf"},
      { "name": "Maerz2023 bottom.pdf"},
      { "name": "April top.pdf"},
      { "name": "April bottom.pdf"},
      { "name": "Mai2023 top.pdf"},
      { "name": "Mai2023 bottom.pdf"},
      { "name": "Juni2023 top.pdf"},
      { "name": "Juni2023 bottom.pdf"},
      { "name": "Juli2023 top.pdf"},
      { "name": "Juli2023 bottom.pdf"},
      { "name": "August2023 top.pdf"},
      { "name": "August2023 bottom.pdf"},
      { "name": "September2023 top.pdf"},
      { "name": "September2023 bottom.pdf"},
      { "name": "Oktober2023 top.pdf"},
      { "name": "Oktober2023 bottom.pdf"},
      { "name": "November2023 top.pdf"},
      { "name": "November2023 bottom.pdf"},
      { "name": "Dezember2023 top.pdf"},
      { "name": "Dezember2023 bottom.pdf"}
    ],
    "parameter": {
      "ignoreSequenceForFlat": false,
      "productType": "Multipartbooklet",
      "parts": [
        {
          "type": "body",
          "pages": 26,
          "width": 210,
          "height": 297
        },
        {
          "type": "cover",
          "pages": 2,
          "width": 210,
          "height": 297
        }
      ]
    }
  }
}